data/14cm_1.CSV

Model,DPO2002B
Firmware Version,1.56

Point Format,Y,
Horizontal Units,S,
Horizontal Scale,0.01,
Sample Interval,8e-07,
Filter Frequency,7e+07,
Record Length,125000,
Gating,0.0% to 100.0%,
Probe Attenuation,10,
Vertical Units,V,
Vertical Offset,0,
Vertical Scale,2,
Label,,
TIME,CH2,CH2 Peak Detect
-1.84160e-02,1.48,1.56
-1.84152e-02,1.56,1.4
-1.84144e-02,1.48,1.56
-1.84136e-02,1.48,1.48
-1.84128e-02,1.48,1.56
-1.84120e-02,1.56,1.48
-1.84112e-02,1.56,1.56
-1.84104e-02,1.48,1.48
-1.84096e-02,1.48,1.56
-1.84088e-02,1.56,1.4
-1.84080e-02,1.56,1.56
-1.84072e-02,1.48,1.4
-1.84064e-02,1.48,1.56
-1.84056e-02,1.56,1.4
-1.84048e-02,1.56,1.56
-1.84040e-02,1.56,1.4
-1.84032e-02,1.48,1.56
-1.84024e-02,1.48,1.4
-1.84016e-02,1.48,1.56
-1.84008e-02,1.56,1.4
-1.84000e-02,1.48,1.56
-1.83992e-02,1.48,1.4
-1.83984e-02,1.48,1.56
-1.83976e-02,1.56,1.4
-1.83968e-02,1.48,1.56
-1.83960e-02,1.56,1.4
-1.83952e-02,1.48,1.56
-1.83944e-02,1.48,1.4
-1.83936e-02,1.48,1.56
-1.83928e-02,1.48,1.4
-1.83920e-02,1.48,1.56
-1.83912e-02,1.48,1.4
-1.83904e-02,1.48,1.56
-1.83896e-02,1.48,1.4
-1.83888e-02,1.48,1.56
-1.83880e-02,1.48,1.4
-1.83872e-02,1.48,1.56
-1.83864e-02,1.48,1.4
-1.83856e-02,1.48,1.56
-1.83848e-02,1.48,1.4
-1.83840e-02,1.48,1.56
-1.83832e-02,1.48,1.4
-1.83824e-02,1.48,1.56
-1.83816e-02,1.4,1.4
-1.83808e-02,1.48,1.56
-1.83800e-02,1.48,1.4
-1.83792e-02,1.48,1.48
-1.83784e-02,1.48,1.4
-1.83776e-02,1.48,1.56
-1.83768e-02,1.48,1.4
-1.83760e-02,1.48,1.56
-1.83752e-02,1.48,1.4
-1.83744e-02,1.4,1.56
-1.83736e-02,1.48,1.4
-1.83728e-02,1.48,1.48
-1.83720e-02,1.4,1.4
-1.83712e-02,1.48,1.48
-1.83704e-02,1.48,1.4
-1.83696e-02,1.4,1.48
-1.83688e-02,1.48,1.4
-1.83680e-02,1.4,1.48
-1.83672e-02,1.4,1.32
-1.83664e-02,1.48,1.48
-1.83656e-02,1.48,1.4
-1.83648e-02,1.48,1.48
-1.83640e-02,1.48,1.32
-1.83632e-02,1.4,1.48
-1.83624e-02,1.4,1.32
-1.83616e-02,1.4,1.48
-1.83608e-02,1.4,1.32
-1.83600e-02,1.4,1.48
-1.83592e-02,1.4,1.32
-1.83584e-02,1.4,1.48
-1.83576e-02,1.4,1.32
-1.83568e-02,1.4,1.48
-1.83560e-02,1.4,1.32
-1.83552e-02,1.4,1.48
-1.83544e-02,1.4,1.32
-1.83536e-02,1.4,1.48
-1.83528e-02,1.4,1.32
-1.83520e-02,1.4,1.48
-1.83512e-02,1.4,1.32
-1.83504e-02,1.4,1.48
-1.83496e-02,1.4,1.32
-1.83488e-02,1.4,1.48
-1.83480e-02,1.4,1.32
-1.83472e-02,1.4,1.48
-1.83464e-02,1.4,1.32
-1.83456e-02,1.4,1.4
-1.83448e-02,1.4,1.32
-1.83440e-02,1.4,1.4
-1.83432e-02,1.4,1.32
-1.83424e-02,1.4,1.4
-1.83416e-02,1.4,1.32
-1.83408e-02,1.4,1.4
-1.83400e-02,1.32,1.32
-1.83392e-02,1.32,1.4
-1.83384e-02,1.32,1.32
-1.83376e-02,1.32,1.4
-1.83368e-02,1.32,1.24
-1.83360e-02,1.4,1.4
-1.83352e-02,1.32,1.32
-1.83344e-02,1.32,1.4
-1.83336e-02,1.32,1.24
-1.83328e-02,1.32,1.4
-1.83320e-02,1.32,1.24
-1.83312e-02,1.32,1.4
-1.83304e-02,1.32,1.24
-1.83296e-02,1.32,1.4
-1.83288e-02,1.32,1.24
-1.83280e-02,1.32,1.4
-1.83272e-02,1.32,1.24
-1.83264e-02,1.32,1.4
-1.83256e-02,1.32,1.24
-1.83248e-02,1.32,1.4
-1.83240e-02,1.32,1.24
-1.83232e-02,1.32,1.4
-1.83224e-02,1.32,1.24
-1.83216e-02,1.32,1.4
-1.83208e-02,1.32,1.24
-1.83200e-02,1.32,1.32
-1.83192e-02,1.32,1.24
-1.83184e-02,1.32,1.4
-1.83176e-02,1.32,1.24
-1.83168e-02,1.24,1.32
-1.83160e-02,1.32,1.24
-1.83152e-02,1.24,1.32
-1.83144e-02,1.32,1.16
-1.83136e-02,1.32,1.32
-1.83128e-02,1.32,1.16
-1.83120e-02,1.32,1.32
-1.83112e-02,1.32,1.24
-1.83104e-02,1.24,1.32
-1.83096e-02,1.24,1.24
-1.83088e-02,1.24,1.32
-1.83080e-02,1.32,1.16
-1.83072e-02,1.24,1.32
-1.83064e-02,1.24,1.16
-1.83056e-02,1.24,1.32
-1.83048e-02,1.24,1.16
-1.83040e-02,1.24,1.32
-1.83032e-02,1.24,1.16
-1.83024e-02,1.24,1.32
-1.83016e-02,1.24,1.16
-1.83008e-02,1.24,1.32
-1.83000e-02,1.24,1.16
-1.82992e-02,1.24,1.32
-1.82984e-02,1.24,1.16
-1.82976e-02,1.24,1.32
-1.82968e-02,1.24,1.16
-1.82960e-02,1.16,1.32
-1.82952e-02,1.24,1.16
-1.82944e-02,1.24,1.24
-1.82936e-02,1.24,1.16
-1.82928e-02,1.16,1.24
-1.82920e-02,1.16,1.16
-1.82912e-02,1.16,1.24
-1.82904e-02,1.24,1.08
-1.82896e-02,1.16,1.24
-1.82888e-02,1.16,1.08
-1.82880e-02,1.16,1.24
-1.82872e-02,1.16,1.08
-1.82864e-02,1.16,1.24
-1.82856e-02,1.16,1.08
-1.82848e-02,1.16,1.24
-1.82840e-02,1.16,1.08
-1.82832e-02,1.16,1.24
-1.82824e-02,1.16,1.08
-1.82816e-02,1.16,1.24
-1.82808e-02,1.16,1.08
-1.82800e-02,1.16,1.24
-1.82792e-02,1.16,1.08
-1.82784e-02,1.16,1.24
-1.82776e-02,1.16,1.08
-1.82768e-02,1.16,1.24
-1.82760e-02,1.16,1.08
-1.82752e-02,1.16,1.24
-1.82744e-02,1.16,1.08
-1.82736e-02,1.16,1.16
-1.82728e-02,1.16,1.08
-1.82720e-02,1.16,1.16
-1.82712e-02,1.08,1.08
-1.82704e-02,1.08,1.16
-1.82696e-02,1.16,1.08
-1.82688e-02,1.08,1.16
-1.82680e-02,1.08,1
-1.82672e-02,1.08,1.16
-1.82664e-02,1.08,1
-1.82656e-02,1.08,1.16
-1.82648e-02,1.08,1
-1.82640e-02,1.16,1.16
-1.82632e-02,1.08,1
-1.82624e-02,1.08,1.16
-1.82616e-02,1.08,1
-1.82608e-02,1.08,1.16
-1.82600e-02,1.08,1
-1.82592e-02,1.08,1.16
-1.82584e-02,1.08,1
-1.82576e-02,1.08,1.16
-1.82568e-02,1.08,1
-1.82560e-02,1.08,1.16
-1.82552e-02,1.08,1
-1.82544e-02,1.08,1.08
-1.82536e-02,1.08,1
-1.82528e-02,1,1.16
-1.82520e-02,1.08,1
-1.82512e-02,1.08,1.08
-1.82504e-02,1.08,1
-1.82496e-02,1.08,1.08
-1.82488e-02,1,0.92
-1.82480e-02,1,1.08
-1.82472e-02,1.08,1
-1.82464e-02,1.08,1.08
-1.82456e-02,1.08,0.92
-1.82448e-02,1,1.08
-1.82440e-02,1.08,0.92
-1.82432e-02,1,1.08
-1.82424e-02,1,0.92
-1.82416e-02,1,1.08
-1.82408e-02,1,0.92
-1.82400e-02,1,1.08
-1.82392e-02,1,0.92
-1.82384e-02,1,1.08
-1.82376e-02,1,0.92
-1.82368e-02,1,1.08
-1.82360e-02,1,0.92
-1.82352e-02,1,1.08
-1.82344e-02,1,0.92
-1.82336e-02,1,1.08
-1.82328e-02,1,0.92
-1.82320e-02,1,1.08
-1.82312e-02,1,0.92
-1.82304e-02,1,1
-1.82296e-02,1,0.84
-1.82288e-02,1,1
-1.82280e-02,1,0.84
-1.82272e-02,1,1
-1.82264e-02,1,0.84
-1.82256e-02,1,1
-1.82248e-02,0.92,0.84
-1.82240e-02,0.92,1
-1.82232e-02,1,0.84
-1.82224e-02,0.92,1
-1.82216e-02,0.92,0.84
-1.82208e-02,0.92,1
-1.82200e-02,0.92,0.84
-1.82192e-02,0.92,1
-1.82184e-02,0.92,0.84
-1.82176e-02,0.92,1
-1.82168e-02,0.92,0.84
-1.82160e-02,0.92,1
-1.82152e-02,0.92,0.84
-1.82144e-02,0.92,1
-1.82136e-02,0.92,0.84
-1.82128e-02,0.92,1
-1.82120e-02,0.92,0.84
-1.82112e-02,0.92,1
-1.82104e-02,0.92,0.84
-1.82096e-02,0.92,0.92
-1.82088e-02,0.84,0.76
-1.82080e-02,0.92,1
-1.82072e-02,0.92,0.76
-1.82064e-02,0.92,0.92
-1.82056e-02,0.92,0.76
-1.82048e-02,0.92,0.92
-1.82040e-02,0.84,0.76
-1.82032e-02,0.92,0.92
-1.82024e-02,0.84,0.76
-1.82016e-02,0.84,0.92
-1.82008e-02,0.92,0.76
-1.82000e-02,0.84,0.92
-1.81992e-02,0.84,0.76
-1.81984e-02,0.92,0.92
-1.81976e-02,0.84,0.76
-1.81968e-02,0.84,0.92
-1.81960e-02,0.84,0.76
-1.81952e-02,0.84,0.92
-1.81944e-02,0.84,0.76
-1.81936e-02,0.84,0.92
-1.81928e-02,0.84,0.76
-1.81920e-02,0.84,0.92
-1.81912e-02,0.84,0.76
-1.81904e-02,0.84,0.84
-1.81896e-02,0.84,0.76
-1.81888e-02,0.84,0.92
-1.81880e-02,0.84,0.76
-1.81872e-02,0.76,0.92
-1.81864e-02,0.76,0.76
-1.81856e-02,0.84,0.92
-1.81848e-02,0.76,0.68
-1.81840e-02,0.84,0.84
-1.81832e-02,0.84,0.68
-1.81824e-02,0.76,0.84
-1.81816e-02,0.76,0.68
-1.81808e-02,0.76,0.84
-1.81800e-02,0.76,0.68
-1.81792e-02,0.76,0.84
-1.81784e-02,0.76,0.68
-1.81776e-02,0.76,0.84
-1.81768e-02,0.76,0.68
-1.81760e-02,0.76,0.84
-1.81752e-02,0.76,0.68
-1.81744e-02,0.76,0.84
-1.81736e-02,0.76,0.68
-1.81728e-02,0.76,0.84
-1.81720e-02,0.76,0.68
-1.81712e-02,0.76,0.84
-1.81704e-02,0.76,0.68
-1.81696e-02,0.76,0.84
-1.81688e-02,0.76,0.68
-1.81680e-02,0.76,0.76
-1.81672e-02,0.76,0.68
-1.81664e-02,0.76,0.76
-1.81656e-02,0.76,0.68
-1.81648e-02,0.76,0.76
-1.81640e-02,0.76,0.68
-1.81632e-02,0.76,0.76
-1.81624e-02,0.68,0.68
-1.81616e-02,0.68,0.76
-1.81608e-02,0.76,0.68
-1.81600e-02,0.68,0.76
-1.81592e-02,0.68,0.6
-1.81584e-02,0.76,0.76
-1.81576e-02,0.68,0.6
-1.81568e-02,0.68,0.76
-1.81560e-02,0.68,0.6
-1.81552e-02,0.68,0.76
-1.81544e-02,0.68,0.6
-1.81536e-02,0.68,0.76
-1.81528e-02,0.68,0.6
-1.81520e-02,0.68,0.76
-1.81512e-02,0.76,0.6
-1.81504e-02,0.68,0.76
-1.81496e-02,0.68,0.6
-1.81488e-02,0.68,0.76
-1.81480e-02,0.68,0.6
-1.81472e-02,0.68,0.76
-1.81464e-02,0.68,0.6
-1.81456e-02,0.68,0.76
-1.81448e-02,0.68,0.6
-1.81440e-02,0.68,0.76
-1.81432e-02,0.68,0.6
-1.81424e-02,0.6,0.76
-1.81416e-02,0.68,0.6
-1.81408e-02,0.68,0.76
-1.81400e-02,0.68,0.6
-1.81392e-02,0.68,0.76
-1.81384e-02,0.68,0.6
-1.81376e-02,0.68,0.68
-1.81368e-02,0.68,0.6
-1.81360e-02,0.68,0.68
-1.81352e-02,0.68,0.6
-1.81344e-02,0.6,0.68
-1.81336e-02,0.6,0.52
-1.81328e-02,0.68,0.68
-1.81320e-02,0.6,0.52
-1.81312e-02,0.6,0.68
-1.81304e-02,0.68,0.52
-1.81296e-02,0.68,0.68
-1.81288e-02,0.6,0.52
-1.81280e-02,0.6,0.68
-1.81272e-02,0.6,0.52
-1.81264e-02,0.6,0.68
-1.81256e-02,0.6,0.52
-1.81248e-02,0.6,0.68
-1.81240e-02,0.6,0.52
-1.81232e-02,0.52,0.68
-1.81224e-02,0.6,0.52
-1.81216e-02,0.6,0.68
-1.81208e-02,0.6,0.52
-1.81200e-02,0.6,0.68
-1.81192e-02,0.6,0.52
-1.81184e-02,0.52,0.68
-1.81176e-02,0.6,0.52
-1.81168e-02,0.6,0.68
-1.81160e-02,0.6,0.52
-1.81152e-02,0.52,0.6
-1.81144e-02,0.6,0.52
-1.81136e-02,0.6,0.68
-1.81128e-02,0.6,0.52
-1.81120e-02,0.52,0.68
-1.81112e-02,0.52,0.52
-1.81104e-02,0.6,0.6
-1.81096e-02,0.52,0.52
-1.81088e-02,0.6,0.6
-1.81080e-02,0.52,0.52
-1.81072e-02,0.6,0.6
-1.81064e-02,0.52,0.44
-1.81056e-02,0.52,0.6
-1.81048e-02,0.52,0.44
-1.81040e-02,0.52,0.6
-1.81032e-02,0.52,0.44
-1.81024e-02,0.52,0.6
-1.81016e-02,0.52,0.44
-1.81008e-02,0.52,0.6
-1.81000e-02,0.52,0.44
-1.80992e-02,0.52,0.6
-1.80984e-02,0.52,0.44
-1.80976e-02,0.52,0.6
-1.80968e-02,0.52,0.44
-1.80960e-02,0.52,0.6
-1.80952e-02,0.52,0.44
-1.80944e-02,0.52,0.6
-1.80936e-02,0.52,0.44
-1.80928e-02,0.52,0.6
-1.80920e-02,0.52,0.44
-1.80912e-02,0.52,0.6
-1.80904e-02,0.52,0.44
-1.80896e-02,0.52,0.6
-1.80888e-02,0.52,0.44
-1.80880e-02,0.52,0.6
-1.80872e-02,0.52,0.44
-1.80864e-02,0.52,0.6
-1.80856e-02,0.44,0.44
-1.80848e-02,0.44,0.6
-1.80840e-02,0.52,0.44
-1.80832e-02,0.52,0.6
-1.80824e-02,0.44,0.44
-1.80816e-02,0.52,0.52
-1.80808e-02,0.44,0.44
-1.80800e-02,0.52,0.52
-1.80792e-02,0.52,0.44
-1.80784e-02,0.44,0.52
-1.80776e-02,0.44,0.44
-1.80768e-02,0.44,0.52
-1.80760e-02,0.52,0.36
-1.80752e-02,0.44,0.52
-1.80744e-02,0.44,0.36
-1.80736e-02,0.52,0.52
-1.80728e-02,0.44,0.36
-1.80720e-02,0.44,0.52
-1.80712e-02,0.44,0.36
-1.80704e-02,0.44,0.52
-1.80696e-02,0.44,0.36
-1.80688e-02,0.44,0.52
-1.80680e-02,0.44,0.36
-1.80672e-02,0.44,0.52
-1.80664e-02,0.44,0.36
-1.80656e-02,0.44,0.52
-1.80648e-02,0.44,0.36
-1.80640e-02,0.44,0.52
-1.80632e-02,0.52,0.36
-1.80624e-02,0.44,0.52
-1.80616e-02,0.44,0.36
-1.80608e-02,0.44,0.52
-1.80600e-02,0.44,0.36
-1.80592e-02,0.44,0.52
-1.80584e-02,0.44,0.36
-1.80576e-02,0.44,0.52
-1.80568e-02,0.44,0.36
-1.80560e-02,0.44,0.52
-1.80552e-02,0.44,0.36
-1.80544e-02,0.44,0.52
-1.80536e-02,0.44,0.36
-1.80528e-02,0.44,0.44
-1.80520e-02,0.44,0.36
-1.80512e-02,0.44,0.44
-1.80504e-02,0.44,0.36
-1.80496e-02,0.44,0.44
-1.80488e-02,0.36,0.36
-1.80480e-02,0.44,0.44
-1.80472e-02,0.44,0.36
-1.80464e-02,0.44,0.44
-1.80456e-02,0.44,0.36
-1.80448e-02,0.44,0.44
-1.80440e-02,0.44,0.36
-1.80432e-02,0.44,0.44
-1.80424e-02,0.44,0.36
-1.80416e-02,0.36,0.44
-1.80408e-02,0.36,0.36
-1.80400e-02,0.44,0.44
-1.80392e-02,0.44,0.36
-1.80384e-02,0.36,0.44
-1.80376e-02,0.44,0.36
-1.80368e-02,0.36,0.44
-1.80360e-02,0.36,0.28
-1.80352e-02,0.36,0.44
-1.80344e-02,0.36,0.28
-1.80336e-02,0.36,0.44
-1.80328e-02,0.36,0.36
-1.80320e-02,0.36,0.44
-1.80312e-02,0.36,0.28
-1.80304e-02,0.36,0.44
-1.80296e-02,0.44,0.28
-1.80288e-02,0.36,0.44
-1.80280e-02,0.36,0.28
-1.80272e-02,0.36,0.44
-1.80264e-02,0.36,0.28
-1.80256e-02,0.36,0.44
-1.80248e-02,0.36,0.28
-1.80240e-02,0.36,0.44
-1.80232e-02,0.36,0.28
-1.80224e-02,0.36,0.44
-1.80216e-02,0.36,0.28
-1.80208e-02,0.36,0.44
-1.80200e-02,0.36,0.28
-1.80192e-02,0.36,0.44
-1.80184e-02,0.36,0.28
-1.80176e-02,0.36,0.44
-1.80168e-02,0.36,0.28
-1.80160e-02,0.36,0.44
-1.80152e-02,0.36,0.28
-1.80144e-02,0.36,0.44
-1.80136e-02,0.36,0.28
-1.80128e-02,0.36,0.44
-1.80120e-02,0.36,0.28
-1.80112e-02,0.36,0.44
-1.80104e-02,0.36,0.28
-1.80096e-02,0.28,0.44
-1.80088e-02,0.36,0.28
-1.80080e-02,0.28,0.44
-1.80072e-02,0.28,0.28
-1.80064e-02,0.36,0.36
-1.80056e-02,0.36,0.28
-1.80048e-02,0.28,0.36
-1.80040e-02,0.36,0.28
-1.80032e-02,0.36,0.36
-1.80024e-02,0.28,0.28
-1.80016e-02,0.28,0.36
-1.80008e-02,0.28,0.28
-1.80000e-02,0.36,0.36
-1.79992e-02,0.28,0.28
-1.79984e-02,0.36,0.36
-1.79976e-02,0.28,0.28
-1.79968e-02,0.28,0.36
-1.79960e-02,0.28,0.2
-1.79952e-02,0.36,0.36
-1.79944e-02,0.28,0.28
-1.79936e-02,0.28,0.36
-1.79928e-02,0.28,0.28
-1.79920e-02,0.28,0.36
-1.79912e-02,0.28,0.28
-1.79904e-02,0.28,0.36
-1.79896e-02,0.28,0.28
-1.79888e-02,0.28,0.36
-1.79880e-02,0.28,0.28
-1.79872e-02,0.28,0.36
-1.79864e-02,0.28,0.28
-1.79856e-02,0.28,0.36
-1.79848e-02,0.28,0.28
-1.79840e-02,0.28,0.36
-1.79832e-02,0.28,0.28
-1.79824e-02,0.28,0.36
-1.79816e-02,0.28,0.28
-1.79808e-02,0.28,0.36
-1.79800e-02,0.28,0.28
-1.79792e-02,0.28,0.36
-1.79784e-02,0.28,0.2
-1.79776e-02,0.28,0.36
-1.79768e-02,0.28,0.2
-1.79760e-02,0.28,0.36
-1.79752e-02,0.28,0.2
-1.79744e-02,0.28,0.36
-1.79736e-02,0.28,0.2
-1.79728e-02,0.28,0.36
-1.79720e-02,0.28,0.2
-1.79712e-02,0.28,0.36
-1.79704e-02,0.28,0.2
-1.79696e-02,0.28,0.36
-1.79688e-02,0.28,0.2
-1.79680e-02,0.28,0.36
-1.79672e-02,0.28,0.2
-1.79664e-02,0.28,0.36
-1.79656e-02,0.28,0.2
-1.79648e-02,0.28,0.36
-1.79640e-02,0.28,0.2
-1.79632e-02,0.28,0.36
-1.79624e-02,0.28,0.2
-1.79616e-02,0.28,0.36
-1.79608e-02,0.28,0.2
-1.79600e-02,0.28,0.36
-1.79592e-02,0.28,0.2
-1.79584e-02,0.2,0.36
-1.79576e-02,0.2,0.2
-1.79568e-02,0.28,0.36
-1.79560e-02,0.2,0.2
-1.79552e-02,0.28,0.28
-1.79544e-02,0.28,0.2
-1.79536e-02,0.28,0.28
-1.79528e-02,0.28,0.2
-1.79520e-02,0.28,0.28
-1.79512e-02,0.28,0.2
-1.79504e-02,0.2,0.28
-1.79496e-02,0.28,0.2
-1.79488e-02,0.28,0.28
-1.79480e-02,0.28,0.2
-1.79472e-02,0.28,0.36
-1.79464e-02,0.28,0.2
-1.79456e-02,0.28,0.28
-1.79448e-02,0.28,0.2
-1.79440e-02,0.28,0.28
-1.79432e-02,0.2,0.2
-1.79424e-02,0.28,0.28
-1.79416e-02,0.28,0.2
-1.79408e-02,0.28,0.28
-1.79400e-02,0.28,0.2
-1.79392e-02,0.28,0.28
-1.79384e-02,0.2,0.2
-1.79376e-02,0.2,0.28
-1.79368e-02,0.28,0.2
-1.79360e-02,0.2,0.28
-1.79352e-02,0.28,0.2
-1.79344e-02,0.28,0.28
-1.79336e-02,0.28,0.2
-1.79328e-02,0.28,0.28
-1.79320e-02,0.2,0.2
-1.79312e-02,0.2,0.28
-1.79304e-02,0.28,0.2
-1.79296e-02,0.28,0.28
-1.79288e-02,0.28,0.2
-1.79280e-02,0.28,0.28
-1.79272e-02,0.28,0.2
-1.79264e-02,0.2,0.28
-1.79256e-02,0.2,0.2
-1.79248e-02,0.2,0.28
-1.79240e-02,0.2,0.2
-1.79232e-02,0.2,0.28
-1.79224e-02,0.2,0.12
-1.79216e-02,0.28,0.28
-1.79208e-02,0.2,0.12
-1.79200e-02,0.28,0.28
-1.79192e-02,0.2,0.2
-1.79184e-02,0.28,0.28
-1.79176e-02,0.2,0.2
-1.79168e-02,0.2,0.28
-1.79160e-02,0.28,0.2
-1.79152e-02,0.2,0.28
-1.79144e-02,0.2,0.2
-1.79136e-02,0.2,0.28
-1.79128e-02,0.2,0.12
-1.79120e-02,0.2,0.28
-1.79112e-02,0.2,0.12
-1.79104e-02,0.2,0.28
-1.79096e-02,0.2,0.12
-1.79088e-02,0.2,0.28
-1.79080e-02,0.2,0.12
-1.79072e-02,0.2,0.28
-1.79064e-02,0.2,0.12
-1.79056e-02,0.2,0.28
-1.79048e-02,0.28,0.12
-1.79040e-02,0.28,0.28
-1.79032e-02,0.2,0.12
-1.79024e-02,0.2,0.28
-1.79016e-02,0.2,0.12
-1.79008e-02,0.2,0.28
-1.79000e-02,0.2,0.12
-1.78992e-02,0.2,0.28
-1.78984e-02,0.2,0.12
-1.78976e-02,0.2,0.28
-1.78968e-02,0.2,0.12
-1.78960e-02,0.2,0.28
-1.78952e-02,0.2,0.12
-1.78944e-02,0.2,0.28
-1.78936e-02,0.12,0.12
-1.78928e-02,0.2,0.28
-1.78920e-02,0.2,0.12
-1.78912e-02,0.2,0.28
-1.78904e-02,0.2,0.12
-1.78896e-02,0.12,0.28
-1.78888e-02,0.2,0.12
-1.78880e-02,0.2,0.28
-1.78872e-02,0.2,0.12
-1.78864e-02,0.2,0.28
-1.78856e-02,0.12,0.12
-1.78848e-02,0.2,0.28
-1.78840e-02,0.2,0.12
-1.78832e-02,0.12,0.28
-1.78824e-02,0.2,0.12
-1.78816e-02,0.2,0.28
-1.78808e-02,0.2,0.12
-1.78800e-02,0.2,0.28
-1.78792e-02,0.2,0.12
-1.78784e-02,0.2,0.28
-1.78776e-02,0.2,0.12
-1.78768e-02,0.2,0.28
-1.78760e-02,0.2,0.12
-1.78752e-02,0.2,0.28
-1.78744e-02,0.2,0.12
-1.78736e-02,0.2,0.28
-1.78728e-02,0.2,0.12
-1.78720e-02,0.2,0.2
-1.78712e-02,0.2,0.12
-1.78704e-02,0.2,0.2
-1.78696e-02,0.2,0.12
-1.78688e-02,0.12,0.2
-1.78680e-02,0.2,0.12
-1.78672e-02,0.2,0.28
-1.78664e-02,0.2,0.12
-1.78656e-02,0.12,0.2
-1.78648e-02,0.2,0.12
-1.78640e-02,0.2,0.2
-1.78632e-02,0.2,0.12
-1.78624e-02,0.2,0.28
-1.78616e-02,0.2,0.12
-1.78608e-02,0.12,0.2
-1.78600e-02,0.12,0.12
-1.78592e-02,0.2,0.2
-1.78584e-02,0.2,0.12
-1.78576e-02,0.12,0.28
-1.78568e-02,0.2,0.12
-1.78560e-02,0.2,0.28
-1.78552e-02,0.12,0.12
-1.78544e-02,0.2,0.2
-1.78536e-02,0.12,0.12
-1.78528e-02,0.2,0.2
-1.78520e-02,0.2,0.12
-1.78512e-02,0.12,0.2
-1.78504e-02,0.12,0.12
-1.78496e-02,0.12,0.2
-1.78488e-02,0.2,0.12
-1.78480e-02,0.12,0.2
-1.78472e-02,0.2,0.12
-1.78464e-02,0.12,0.2
-1.78456e-02,0.12,0.04
-1.78448e-02,0.12,0.2
-1.78440e-02,0.12,0.12
-1.78432e-02,0.12,0.28
-1.78424e-02,0.2,0.12
-1.78416e-02,0.12,0.2
-1.78408e-02,0.12,0.12
-1.78400e-02,0.2,0.2
-1.78392e-02,0.12,0.12
-1.78384e-02,0.12,0.2
-1.78376e-02,0.12,0.04
-1.78368e-02,0.12,0.2
-1.78360e-02,0.12,0.12
-1.78352e-02,0.12,0.2
-1.78344e-02,0.12,0.12
-1.78336e-02,0.12,0.2
-1.78328e-02,0.2,0.12
-1.78320e-02,0.12,0.2
-1.78312e-02,0.12,0.12
-1.78304e-02,0.12,0.2
-1.78296e-02,0.12,0.12
-1.78288e-02,0.2,0.2
-1.78280e-02,0.12,0.12
-1.78272e-02,0.12,0.2
-1.78264e-02,0.12,0.12
-1.78256e-02,0.12,0.2
-1.78248e-02,0.12,0.12
-1.78240e-02,0.12,0.2
-1.78232e-02,0.12,0.04
-1.78224e-02,0.12,0.2
-1.78216e-02,0.12,0.12
-1.78208e-02,0.12,0.2
-1.78200e-02,0.12,0.04
-1.78192e-02,0.12,0.2
-1.78184e-02,0.12,0.04
-1.78176e-02,0.12,0.2
-1.78168e-02,0.12,0.12
-1.78160e-02,0.12,0.2
-1.78152e-02,0.12,0.12
-1.78144e-02,0.12,0.2
-1.78136e-02,0.12,0.12
-1.78128e-02,0.12,0.2
-1.78120e-02,0.12,0.12
-1.78112e-02,0.12,0.2
-1.78104e-02,0.12,0.04
-1.78096e-02,0.12,0.2
-1.78088e-02,0.12,0.12
-1.78080e-02,0.12,0.2
-1.78072e-02,0.12,0.12
-1.78064e-02,0.12,0.2
-1.78056e-02,0.12,0.04
-1.78048e-02,0.12,0.2
-1.78040e-02,0.12,0.04
-1.78032e-02,0.12,0.2
-1.78024e-02,0.12,0.04
-1.78016e-02,0.12,0.2
-1.78008e-02,0.12,0.04
-1.78000e-02,0.12,0.2
-1.77992e-02,0.12,0.04
-1.77984e-02,0.12,0.2
-1.77976e-02,0.12,0.04
-1.77968e-02,0.12,0.2
-1.77960e-02,0.12,0.04
-1.77952e-02,0.12,0.2
-1.77944e-02,0.12,0.04
-1.77936e-02,0.12,0.2
-1.77928e-02,0.12,0.04
-1.77920e-02,0.12,0.2
-1.77912e-02,0.12,0.04
-1.77904e-02,0.12,0.2
-1.77896e-02,0.12,0.12
-1.77888e-02,0.12,0.2
-1.77880e-02,0.12,0.04
-1.77872e-02,0.12,0.2
-1.77864e-02,0.12,0.04
-1.77856e-02,0.12,0.2
-1.77848e-02,0.12,0.04
-1.77840e-02,0.12,0.2
-1.77832e-02,0.12,0.04
-1.77824e-02,0.12,0.2
-1.77816e-02,0.12,0.04
-1.77808e-02,0.12,0.2
-1.77800e-02,0.12,0.04
-1.77792e-02,0.04,0.2
-1.77784e-02,0.12,0.04
-1.77776e-02,0.12,0.2
-1.77768e-02,0.12,0.04
-1.77760e-02,0.12,0.2
-1.77752e-02,0.12,0.04
-1.77744e-02,0.12,0.2
-1.77736e-02,0.12,0.04
-1.77728e-02,0.12,0.2
-1.77720e-02,0.12,0.04
-1.77712e-02,0.12,0.2
-1.77704e-02,0.12,0.04
-1.77696e-02,0.12,0.2
-1.77688e-02,0.12,0.04
-1.77680e-02,0.12,0.2
-1.77672e-02,0.12,0.04
-1.77664e-02,0.12,0.2
-1.77656e-02,0.12,0.04
-1.77648e-02,0.12,0.2
-1.77640e-02,0.12,0.04
-1.77632e-02,0.12,0.2
-1.77624e-02,0.12,0.04
-1.77616e-02,0.12,0.2
-1.77608e-02,0.12,0.04
-1.77600e-02,0.12,0.2
-1.77592e-02,0.12,0.04
-1.77584e-02,0.12,0.2
-1.77576e-02,0.12,0.04
-1.77568e-02,0.12,0.2
-1.77560e-02,0.12,0.04
-1.77552e-02,0.12,0.2
-1.77544e-02,0.12,0.04
-1.77536e-02,0.12,0.2
-1.77528e-02,0.12,0.04
-1.77520e-02,0.12,0.2
-1.77512e-02,0.12,0.04
-1.77504e-02,0.12,0.2
-1.77496e-02,0.12,0.04
-1.77488e-02,0.12,0.2
-1.77480e-02,0.12,0.04
-1.77472e-02,0.12,0.2
-1.77464e-02,0.12,0.04
-1.77456e-02,0.12,0.2
-1.77448e-02,0.12,0.04
-1.77440e-02,0.12,0.2
-1.77432e-02,0.12,0.04
-1.77424e-02,0.12,0.12
-1.77416e-02,0.12,0.04
-1.77408e-02,0.12,0.12
-1.77400e-02,0.12,0.04
-1.77392e-02,0.12,0.12
-1.77384e-02,0.12,0.04
-1.77376e-02,0.12,0.2
-1.77368e-02,0.12,0.04
-1.77360e-02,0.12,0.2
-1.77352e-02,0.12,0.04
-1.77344e-02,0.12,0.2
-1.77336e-02,0.04,0.04
-1.77328e-02,0.12,0.2
-1.77320e-02,0.12,0.04
-1.77312e-02,0.12,0.12
-1.77304e-02,0.12,0.04
-1.77296e-02,0.12,0.2
-1.77288e-02,0.12,0.04
-1.77280e-02,0.12,0.2
-1.77272e-02,0.12,0.04
-1.77264e-02,0.04,0.2
-1.77256e-02,0.12,0.04
-1.77248e-02,0.12,0.12
-1.77240e-02,0.12,0.04
-1.77232e-02,0.04,0.2
-1.77224e-02,0.12,0.04
-1.77216e-02,0.12,0.12
-1.77208e-02,0.12,0.04
-1.77200e-02,0.04,0.2
-1.77192e-02,0.12,0.04
-1.77184e-02,0.12,0.2
-1.77176e-02,0.12,0.04
-1.77168e-02,0.12,0.12
-1.77160e-02,0.12,0.04
-1.77152e-02,0.12,0.12
-1.77144e-02,0.12,0.04
-1.77136e-02,0.04,0.12
