data/8cm_1.CSV

Model,DPO2002B
Firmware Version,1.56

Point Format,Y,
Horizontal Units,S,
Horizontal Scale,0.001,
Sample Interval,8e-08,
Filter Frequency,7e+07,
Record Length,125000,
Gating,0.0% to 100.0%,
Probe Attenuation,10,
Vertical Units,V,
Vertical Offset,0,
Vertical Scale,0.05,
Label,,
TIME,CH2,CH2 Peak Detect
1.520000e-03,0.013,0.019
1.520080e-03,0.021,0.005
1.520160e-03,0.011,0.021
1.520240e-03,0.017,0.005
1.520320e-03,0.013,0.021
1.520400e-03,0.015,0.003
1.520480e-03,0.013,0.023
1.520560e-03,0.011,0.001
1.520640e-03,0.015,0.021
1.520720e-03,0.013,0.005
1.520800e-03,0.015,0.023
1.520880e-03,0.017,0.003
1.520960e-03,0.009,0.023
1.521040e-03,0.011,0.003
1.521120e-03,0.017,0.021
1.521200e-03,0.019,0.003
1.521280e-03,0.013,0.025
1.521360e-03,0.021,0.009
1.521440e-03,0.013,0.025
1.521520e-03,0.011,0.007
1.521600e-03,0.013,0.023
1.521680e-03,0.017,0.007
1.521760e-03,0.023,0.023
1.521840e-03,0.009,0.009
1.521920e-03,0.015,0.025
1.522000e-03,0.017,0.009
1.522080e-03,0.017,0.025
1.522160e-03,0.015,0.003
1.522240e-03,0.017,0.025
1.522320e-03,0.033,0.011
1.522400e-03,0.035,0.025
1.522480e-03,0.027,-0.003
1.522560e-03,0.021,0.035
1.522640e-03,0.009,0.001
1.522720e-03,0.021,0.035
1.522800e-03,0.015,0.005
1.522880e-03,0.017,0.027
1.522960e-03,0.023,0.007
1.523040e-03,0.013,0.025
1.523120e-03,0.015,0.005
1.523200e-03,0.021,0.025
1.523280e-03,0.013,0.005
1.523360e-03,0.017,0.023
1.523440e-03,0.023,0.009
1.523520e-03,0.017,0.023
1.523600e-03,0.019,0.007
1.523680e-03,0.009,0.025
1.523760e-03,0.019,0.005
1.523840e-03,0.011,0.025
1.523920e-03,0.013,0.011
1.524000e-03,0.017,0.025
1.524080e-03,0.017,0.009
1.524160e-03,0.007,0.027
1.524240e-03,0.015,0.007
1.524320e-03,0.023,0.025
1.524400e-03,0.011,0.007
1.524480e-03,0.017,0.023
1.524560e-03,0.019,0.009
1.524640e-03,0.021,0.023
1.524720e-03,0.017,0.009
1.524800e-03,0.021,0.025
1.524880e-03,0.017,0.007
1.524960e-03,0.017,0.025
1.525040e-03,0.019,0.011
1.525120e-03,0.019,0.025
1.525200e-03,0.017,0.005
1.525280e-03,0.019,0.021
1.525360e-03,0.019,0.011
1.525440e-03,0.019,0.027
1.525520e-03,0.009,0.007
1.525600e-03,0.025,0.025
1.525680e-03,0.015,0.007
1.525760e-03,0.015,0.031
1.525840e-03,0.011,0.005
1.525920e-03,0.011,0.031
1.526000e-03,0.017,0.005
1.526080e-03,0.013,0.027
1.526160e-03,0.017,0.009
1.526240e-03,0.017,0.023
1.526320e-03,0.011,0.009
1.526400e-03,0.021,0.025
1.526480e-03,0.023,0.007
1.526560e-03,0.015,0.025
1.526640e-03,0.013,0.007
1.526720e-03,0.021,0.027
1.526800e-03,0.013,0.005
1.526880e-03,0.015,0.027
1.526960e-03,0.027,0.011
1.527040e-03,0.015,0.025
1.527120e-03,0.015,0.007
1.527200e-03,0.013,0.027
1.527280e-03,0.023,0.003
1.527360e-03,0.017,0.025
1.527440e-03,0.015,0.005
1.527520e-03,0.013,0.027
1.527600e-03,0.013,0.005
1.527680e-03,0.015,0.025
1.527760e-03,0.015,0.007
1.527840e-03,0.011,0.023
1.527920e-03,0.023,0.007
1.528000e-03,0.005,0.023
1.528080e-03,0.009,0.005
1.528160e-03,0.013,0.023
1.528240e-03,0.005,0.005
1.528320e-03,0.009,0.023
1.528400e-03,0.023,0.005
1.528480e-03,0.015,0.025
1.528560e-03,0.011,-0.003
1.528640e-03,0.011,0.023
1.528720e-03,0.007,0.003
1.528800e-03,0.009,0.023
1.528880e-03,0.017,0.005
1.528960e-03,0.013,0.023
1.529040e-03,0.015,0.007
1.529120e-03,0.009,0.023
1.529200e-03,0.015,0.005
1.529280e-03,0.017,0.025
1.529360e-03,0.017,0.005
1.529440e-03,0.015,0.023
1.529520e-03,0.013,0.007
1.529600e-03,0.015,0.023
1.529680e-03,0.017,0.007
1.529760e-03,0.011,0.023
1.529840e-03,0.019,0.007
1.529920e-03,0.013,0.021
1.530000e-03,0.021,0.005
1.530080e-03,0.011,0.025
1.530160e-03,0.017,0.007
1.530240e-03,0.023,0.023
1.530320e-03,0.035,0.001
1.530400e-03,0.025,0.029
1.530480e-03,0.021,-0.005
1.530560e-03,0.011,0.035
1.530640e-03,0.017,0.001
1.530720e-03,0.015,0.025
1.530800e-03,0.021,0.005
1.530880e-03,0.019,0.025
1.530960e-03,0.019,0.001
1.531040e-03,0.017,0.027
1.531120e-03,0.009,0.003
1.531200e-03,0.011,0.025
1.531280e-03,0.011,0.007
1.531360e-03,0.015,0.025
1.531440e-03,0.021,0.007
1.531520e-03,0.019,0.019
1.531600e-03,0.013,0.009
1.531680e-03,0.015,0.025
1.531760e-03,0.011,0.007
1.531840e-03,0.019,0.023
1.531920e-03,0.017,0.009
1.532000e-03,0.017,0.027
1.532080e-03,0.013,0.005
1.532160e-03,0.013,0.027
1.532240e-03,0.021,0.003
1.532320e-03,0.017,0.027
1.532400e-03,0.011,0.007
1.532480e-03,0.015,0.025
1.532560e-03,0.019,0.005
1.532640e-03,0.015,0.027
1.532720e-03,0.019,0.005
1.532800e-03,0.015,0.023
1.532880e-03,0.019,0.005
1.532960e-03,0.019,0.023
1.533040e-03,0.017,0.007
1.533120e-03,0.017,0.021
1.533200e-03,0.013,0.007
1.533280e-03,0.017,0.023
1.533360e-03,0.011,0.007
1.533440e-03,0.019,0.025
1.533520e-03,0.015,0.009
1.533600e-03,0.019,0.027
1.533680e-03,0.013,0.009
1.533760e-03,0.013,0.029
1.533840e-03,0.013,0.009
1.533920e-03,0.015,0.027
1.534000e-03,0.013,0.009
1.534080e-03,0.017,0.023
1.534160e-03,0.021,0.009
1.534240e-03,0.017,0.025
1.534320e-03,0.011,0.007
1.534400e-03,0.019,0.023
1.534480e-03,0.017,0.007
1.534560e-03,0.023,0.021
1.534640e-03,0.015,0.003
1.534720e-03,0.011,0.025
1.534800e-03,0.011,0.009
1.534880e-03,0.019,0.025
1.534960e-03,0.017,0.007
1.535040e-03,0.019,0.025
1.535120e-03,0.013,0.007
1.535200e-03,0.017,0.021
1.535280e-03,0.017,0.005
1.535360e-03,0.011,0.021
1.535440e-03,0.011,0.007
1.535520e-03,0.013,0.025
1.535600e-03,0.019,0.003
1.535680e-03,0.019,0.025
1.535760e-03,0.013,0.005
1.535840e-03,0.011,0.025
1.535920e-03,0.019,0.007
1.536000e-03,0.015,0.025
1.536080e-03,0.013,0.009
1.536160e-03,0.017,0.025
1.536240e-03,0.019,0.011
1.536320e-03,0.007,0.025
1.536400e-03,0.025,0.005
1.536480e-03,0.017,0.023
1.536560e-03,0.017,0.005
1.536640e-03,0.015,0.025
1.536720e-03,0.017,0.011
1.536800e-03,0.017,0.027
1.536880e-03,0.021,0.009
1.536960e-03,0.017,0.025
1.537040e-03,0.021,0.007
1.537120e-03,0.019,0.023
1.537200e-03,0.023,0.011
1.537280e-03,0.019,0.027
1.537360e-03,0.015,0.009
1.537440e-03,0.021,0.027
1.537520e-03,0.017,0.005
1.537600e-03,0.017,0.025
1.537680e-03,0.023,0.009
1.537760e-03,0.017,0.025
1.537840e-03,0.013,0.009
1.537920e-03,0.019,0.025
1.538000e-03,0.019,0.007
1.538080e-03,0.029,0.027
1.538160e-03,0.023,0.003
1.538240e-03,0.031,0.029
1.538320e-03,0.021,0.003
1.538400e-03,0.025,0.035
1.538480e-03,0.015,0.003
1.538560e-03,0.019,0.029
1.538640e-03,0.017,0.003
1.538720e-03,0.027,0.023
1.538800e-03,0.021,0.007
1.538880e-03,0.017,0.027
1.538960e-03,0.017,0.007
1.539040e-03,0.015,0.025
1.539120e-03,0.021,0.009
1.539200e-03,0.017,0.023
1.539280e-03,0.015,0.005
1.539360e-03,0.017,0.027
1.539440e-03,0.013,0.009
1.539520e-03,0.017,0.027
1.539600e-03,0.021,0.009
1.539680e-03,0.009,0.023
1.539760e-03,0.017,0.009
1.539840e-03,0.013,0.027
1.539920e-03,0.015,0.007
1.540000e-03,0.009,0.023
1.540080e-03,0.007,0.005
1.540160e-03,0.017,0.031
1.540240e-03,0.013,0.007
1.540320e-03,0.021,0.025
1.540400e-03,0.015,0.005
1.540480e-03,0.015,0.025
1.540560e-03,0.015,0.005
1.540640e-03,0.019,0.023
1.540720e-03,0.015,0.007
1.540800e-03,0.013,0.025
1.540880e-03,0.017,0.009
1.540960e-03,0.015,0.019
1.541040e-03,0.015,0.011
1.541120e-03,0.019,0.025
1.541200e-03,0.017,0.009
1.541280e-03,0.015,0.029
1.541360e-03,0.021,0.011
1.541440e-03,0.015,0.027
1.541520e-03,0.021,0.011
1.541600e-03,0.019,0.025
1.541680e-03,0.025,0.007
1.541760e-03,0.015,0.025
1.541840e-03,0.017,0.011
1.541920e-03,0.017,0.027
1.542000e-03,0.015,0.009
1.542080e-03,0.025,0.023
1.542160e-03,0.017,0.005
1.542240e-03,0.013,0.027
1.542320e-03,0.011,0.009
1.542400e-03,0.011,0.027
1.542480e-03,0.025,0.009
1.542560e-03,0.023,0.025
1.542640e-03,0.019,0.001
1.542720e-03,0.017,0.027
1.542800e-03,0.019,0.011
1.542880e-03,0.027,0.025
1.542960e-03,0.013,0.001
1.543040e-03,0.019,0.027
1.543120e-03,0.017,0.007
1.543200e-03,0.017,0.029
1.543280e-03,0.019,0.007
1.543360e-03,0.017,0.023
1.543440e-03,0.013,0.005
1.543520e-03,0.011,0.029
1.543600e-03,0.019,0.007
1.543680e-03,0.017,0.023
1.543760e-03,0.013,0.007
1.543840e-03,0.013,0.025
1.543920e-03,0.013,0.005
1.544000e-03,0.021,0.023
1.544080e-03,0.015,0.007
1.544160e-03,0.011,0.023
1.544240e-03,0.017,0.009
1.544320e-03,0.023,0.023
1.544400e-03,0.019,0.005
1.544480e-03,0.017,0.023
1.544560e-03,0.015,0.009
1.544640e-03,0.019,0.025
1.544720e-03,0.017,0.007
1.544800e-03,0.025,0.025
1.544880e-03,0.015,0.007
1.544960e-03,0.015,0.027
1.545040e-03,0.011,0.009
1.545120e-03,0.017,0.027
1.545200e-03,0.017,0.009
1.545280e-03,0.021,0.027
1.545360e-03,0.015,0.007
1.545440e-03,0.015,0.029
1.545520e-03,0.011,0.007
1.545600e-03,0.017,0.027
1.545680e-03,0.011,0.005
1.545760e-03,0.015,0.025
1.545840e-03,0.017,0.007
1.545920e-03,0.019,0.025
1.546000e-03,0.017,0.009
1.546080e-03,0.009,0.023
1.546160e-03,0.029,-0.005
1.546240e-03,0.025,0.025
1.546320e-03,0.021,-0.003
1.546400e-03,0.015,0.035
1.546480e-03,0.015,0.001
1.546560e-03,0.007,0.023
1.546640e-03,0.023,0.007
1.546720e-03,0.015,0.025
1.546800e-03,0.013,0.005
1.546880e-03,0.007,0.025
1.546960e-03,0.017,0.003
1.547040e-03,0.019,0.025
1.547120e-03,0.017,0.007
1.547200e-03,0.019,0.021
1.547280e-03,0.023,0.007
1.547360e-03,0.019,0.025
1.547440e-03,0.011,0.003
1.547520e-03,0.017,0.025
1.547600e-03,0.007,0.007
1.547680e-03,0.013,0.023
1.547760e-03,0.021,0.007
1.547840e-03,0.013,0.025
1.547920e-03,0.009,0.003
1.548000e-03,0.013,0.023
1.548080e-03,0.017,0.007
1.548160e-03,0.015,0.027
1.548240e-03,0.007,0.007
1.548320e-03,0.013,0.023
1.548400e-03,0.011,0.001
1.548480e-03,0.015,0.023
1.548560e-03,0.015,0.003
1.548640e-03,0.017,0.023
1.548720e-03,0.015,0.005
1.548800e-03,0.013,0.025
1.548880e-03,0.021,0.009
1.548960e-03,0.009,0.023
1.549040e-03,0.017,0.009
1.549120e-03,0.015,0.027
1.549200e-03,0.023,0.007
1.549280e-03,0.013,0.021
1.549360e-03,0.015,0.007
1.549440e-03,0.015,0.023
1.549520e-03,0.019,0.005
1.549600e-03,0.015,0.023
1.549680e-03,0.013,0.011
1.549760e-03,0.019,0.023
1.549840e-03,0.023,0.007
1.549920e-03,0.021,0.025
1.550000e-03,0.015,0.007
1.550080e-03,0.027,0.023
1.550160e-03,0.017,0.005
1.550240e-03,0.027,0.027
1.550320e-03,0.013,0.009
1.550400e-03,0.009,0.027
1.550480e-03,0.019,0.007
1.550560e-03,0.021,0.027
1.550640e-03,0.013,0.007
1.550720e-03,0.015,0.027
1.550800e-03,0.013,0.007
1.550880e-03,0.011,0.027
1.550960e-03,0.009,0.005
1.551040e-03,0.021,0.025
1.551120e-03,0.023,0.005
1.551200e-03,0.015,0.025
1.551280e-03,0.017,0.009
1.551360e-03,0.017,0.029
1.551440e-03,0.017,0.009
1.551520e-03,0.015,0.025
1.551600e-03,0.019,0.009
1.551680e-03,0.023,0.025
1.551760e-03,0.013,0.005
1.551840e-03,0.025,0.025
1.551920e-03,0.015,0.007
1.552000e-03,0.017,0.025
1.552080e-03,0.009,0.005
1.552160e-03,0.009,0.027
1.552240e-03,0.011,0.005
1.552320e-03,0.017,0.031
1.552400e-03,0.021,0.007
1.552480e-03,0.021,0.025
1.552560e-03,0.017,0.007
1.552640e-03,0.017,0.027
1.552720e-03,0.013,0.007
1.552800e-03,0.019,0.023
1.552880e-03,0.011,0.007
1.552960e-03,0.017,0.023
1.553040e-03,0.023,0.007
1.553120e-03,0.015,0.025
1.553200e-03,0.017,0.007
1.553280e-03,0.017,0.027
1.553360e-03,0.011,0.005
1.553440e-03,0.021,0.021
1.553520e-03,0.021,0.007
1.553600e-03,0.015,0.023
1.553680e-03,0.009,0.007
1.553760e-03,0.015,0.023
1.553840e-03,0.011,0.009
1.553920e-03,0.023,0.023
1.554000e-03,0.025,0.005
1.554080e-03,0.027,0.025
1.554160e-03,0.023,-0.005
1.554240e-03,0.021,0.037
1.554320e-03,0.009,-0.001
1.554400e-03,0.019,0.031
1.554480e-03,0.019,0.009
1.554560e-03,0.017,0.023
1.554640e-03,0.019,0.007
1.554720e-03,0.017,0.025
1.554800e-03,0.017,0.007
1.554880e-03,0.015,0.025
1.554960e-03,0.015,0.005
1.555040e-03,0.015,0.023
1.555120e-03,0.017,0.001
1.555200e-03,0.019,0.033
1.555280e-03,0.019,0.005
1.555360e-03,0.009,0.025
1.555440e-03,0.011,0.007
1.555520e-03,0.013,0.025
1.555600e-03,0.017,0.007
1.555680e-03,0.013,0.021
1.555760e-03,0.015,0.009
1.555840e-03,0.007,0.025
1.555920e-03,0.011,0.007
1.556000e-03,0.017,0.029
1.556080e-03,0.017,0.007
1.556160e-03,0.019,0.025
1.556240e-03,0.019,0.005
1.556320e-03,0.011,0.023
1.556400e-03,0.013,0.009
1.556480e-03,0.015,0.025
1.556560e-03,0.019,0.005
1.556640e-03,0.013,0.023
1.556720e-03,0.015,0.011
1.556800e-03,0.015,0.025
1.556880e-03,0.019,0.009
1.556960e-03,0.017,0.023
1.557040e-03,0.021,0.009
1.557120e-03,0.021,0.027
1.557200e-03,0.013,0.007
1.557280e-03,0.013,0.025
1.557360e-03,0.017,0.011
1.557440e-03,0.011,0.029
1.557520e-03,0.009,0.011
1.557600e-03,0.017,0.025
1.557680e-03,0.021,0.007
1.557760e-03,0.015,0.025
1.557840e-03,0.015,0.009
1.557920e-03,0.021,0.023
1.558000e-03,0.015,0.009
1.558080e-03,0.017,0.025
1.558160e-03,0.023,0.007
1.558240e-03,0.019,0.025
1.558320e-03,0.021,0.009
1.558400e-03,0.019,0.027
1.558480e-03,0.013,0.013
1.558560e-03,0.007,0.027
1.558640e-03,0.021,0.007
1.558720e-03,0.017,0.031
1.558800e-03,0.021,0.009
1.558880e-03,0.017,0.027
1.558960e-03,0.017,0.007
1.559040e-03,0.021,0.025
1.559120e-03,0.021,0.011
1.559200e-03,0.023,0.027
1.559280e-03,0.017,0.009
1.559360e-03,0.013,0.027
1.559440e-03,0.021,0.007
1.559520e-03,0.023,0.025
1.559600e-03,0.019,0.011
1.559680e-03,0.019,0.027
1.559760e-03,0.027,0.011
1.559840e-03,0.023,0.027
1.559920e-03,0.021,0.009
1.560000e-03,0.017,0.033
1.560080e-03,0.023,0.013
1.560160e-03,0.009,0.029
1.560240e-03,0.021,0.009
1.560320e-03,0.021,0.027
1.560400e-03,0.017,0.009
1.560480e-03,0.017,0.029
1.560560e-03,0.021,0.011
1.560640e-03,0.021,0.027
1.560720e-03,0.019,0.009
1.560800e-03,0.017,0.027
1.560880e-03,0.015,0.009
1.560960e-03,0.015,0.027
1.561040e-03,0.013,0.009
1.561120e-03,0.015,0.027
1.561200e-03,0.019,0.011
1.561280e-03,0.021,0.023
1.561360e-03,0.013,0.007
1.561440e-03,0.019,0.027
1.561520e-03,0.015,0.011
1.561600e-03,0.011,0.025
1.561680e-03,0.015,0.005
1.561760e-03,0.015,0.023
1.561840e-03,0.021,0.007
1.561920e-03,0.027,0.025
1.562000e-03,0.027,0.001
1.562080e-03,0.025,0.029
1.562160e-03,0.025,-0.001
1.562240e-03,0.015,0.033
1.562320e-03,0.013,0.001
1.562400e-03,0.013,0.031
1.562480e-03,0.013,0.005
1.562560e-03,0.011,0.023
1.562640e-03,0.019,0.009
1.562720e-03,0.021,0.029
1.562800e-03,0.015,0.003
1.562880e-03,0.011,0.025
1.562960e-03,0.017,0.005
1.563040e-03,0.015,0.027
1.563120e-03,0.011,0.009
1.563200e-03,0.019,0.023
1.563280e-03,0.023,0.009
1.563360e-03,0.015,0.025
1.563440e-03,0.007,0.007
1.563520e-03,0.013,0.027
1.563600e-03,0.017,0.007
1.563680e-03,0.015,0.025
1.563760e-03,0.013,0.003
1.563840e-03,0.013,0.025
1.563920e-03,0.021,0.007
1.564000e-03,0.019,0.027
1.564080e-03,0.019,0.011
1.564160e-03,0.017,0.025
1.564240e-03,0.021,0.009
1.564320e-03,0.013,0.027
1.564400e-03,0.017,0.007
1.564480e-03,0.019,0.023
1.564560e-03,0.011,0.009
1.564640e-03,0.015,0.023
1.564720e-03,0.013,0.005
1.564800e-03,0.021,0.021
1.564880e-03,0.019,0.001
1.564960e-03,0.001,0.025
1.565040e-03,0.019,0.001
1.565120e-03,0.015,0.025
1.565200e-03,0.017,0.003
1.565280e-03,0.017,0.023
1.565360e-03,0.007,0.007
1.565440e-03,0.015,0.025
1.565520e-03,0.013,0.007
1.565600e-03,0.015,0.025
1.565680e-03,0.017,0.007
1.565760e-03,0.021,0.023
1.565840e-03,0.017,0.007
1.565920e-03,0.017,0.021
1.566000e-03,0.013,0.009
1.566080e-03,0.017,0.023
1.566160e-03,0.015,0.009
1.566240e-03,0.009,0.029
1.566320e-03,0.015,0.007
1.566400e-03,0.019,0.025
1.566480e-03,0.015,0.005
1.566560e-03,0.021,0.021
1.566640e-03,0.017,0.007
1.566720e-03,0.017,0.023
1.566800e-03,0.011,0.009
1.566880e-03,0.007,0.023
1.566960e-03,0.019,0.005
1.567040e-03,0.015,0.023
1.567120e-03,0.019,0.009
1.567200e-03,0.015,0.023
1.567280e-03,0.015,0.007
1.567360e-03,0.015,0.023
1.567440e-03,0.013,0.007
1.567520e-03,0.013,0.023
1.567600e-03,0.021,0.003
1.567680e-03,0.017,0.023
1.567760e-03,0.017,0.009
1.567840e-03,0.017,0.027
1.567920e-03,0.011,0.009
1.568000e-03,0.013,0.025
1.568080e-03,0.017,0.005
1.568160e-03,0.015,0.023
1.568240e-03,0.023,0.001
1.568320e-03,0.009,0.025
1.568400e-03,0.011,0.007
1.568480e-03,0.019,0.027
1.568560e-03,0.019,0.011
1.568640e-03,0.017,0.023
1.568720e-03,0.015,0.009
1.568800e-03,0.013,0.027
1.568880e-03,0.019,0.003
1.568960e-03,0.011,0.027
1.569040e-03,0.019,0.011
1.569120e-03,0.015,0.025
1.569200e-03,0.023,0.007
1.569280e-03,0.013,0.027
1.569360e-03,0.013,0.005
1.569440e-03,0.023,0.025
1.569520e-03,0.019,0.005
1.569600e-03,0.013,0.025
1.569680e-03,0.015,0.007
1.569760e-03,0.021,0.027
1.569840e-03,0.031,0.009
1.569920e-03,0.029,0.025
1.570000e-03,0.021,-0.005
1.570080e-03,0.013,0.035
1.570160e-03,0.019,-0.003
1.570240e-03,0.015,0.029
1.570320e-03,0.015,0.007
1.570400e-03,0.019,0.023
1.570480e-03,0.013,0.005
1.570560e-03,0.011,0.023
1.570640e-03,0.013,0.007
1.570720e-03,0.005,0.023
1.570800e-03,0.009,0.005
1.570880e-03,0.017,0.025
1.570960e-03,0.011,0.003
1.571040e-03,0.021,0.025
1.571120e-03,0.021,0.005
1.571200e-03,0.019,0.023
1.571280e-03,0.011,0.005
1.571360e-03,0.013,0.023
1.571440e-03,0.009,0.005
1.571520e-03,0.015,0.023
1.571600e-03,0.013,0.005
1.571680e-03,0.009,0.023
1.571760e-03,0.021,0.001
1.571840e-03,0.019,0.021
1.571920e-03,0.025,0.007
1.572000e-03,0.015,0.023
1.572080e-03,0.017,0.007
1.572160e-03,0.017,0.025
1.572240e-03,0.005,0.001
1.572320e-03,0.011,0.025
1.572400e-03,0.015,0.003
1.572480e-03,0.015,0.023
1.572560e-03,0.019,0.005
1.572640e-03,0.007,0.027
1.572720e-03,0.013,0.003
1.572800e-03,0.013,0.021
1.572880e-03,0.013,0.005
1.572960e-03,0.011,0.021
1.573040e-03,0.013,0.005
1.573120e-03,0.013,0.023
1.573200e-03,0.011,0.003
1.573280e-03,0.009,0.023
1.573360e-03,0.021,0.005
1.573440e-03,0.019,0.025
1.573520e-03,0.007,0.007
1.573600e-03,0.013,0.021
1.573680e-03,0.021,0.005
1.573760e-03,0.019,0.025
1.573840e-03,0.015,0.009
1.573920e-03,0.015,0.023
1.574000e-03,0.017,0.003
1.574080e-03,0.013,0.023
1.574160e-03,0.013,0.005
1.574240e-03,0.015,0.023
1.574320e-03,0.017,0.007
1.574400e-03,0.023,0.025
1.574480e-03,0.019,0.007
1.574560e-03,0.017,0.023
1.574640e-03,0.007,0.007
1.574720e-03,0.013,0.023
1.574800e-03,0.021,0.001
1.574880e-03,0.011,0.031
1.574960e-03,0.015,0.005
1.575040e-03,0.013,0.021
1.575120e-03,0.013,0.003
1.575200e-03,0.015,0.023
1.575280e-03,0.015,0.005
1.575360e-03,0.013,0.023
1.575440e-03,0.009,0.003
1.575520e-03,0.011,0.023
1.575600e-03,0.011,0.005
1.575680e-03,0.007,0.023
1.575760e-03,0.013,0.007
1.575840e-03,0.013,0.021
1.575920e-03,0.017,0.003
1.576000e-03,0.013,0.021
1.576080e-03,0.015,0.003
1.576160e-03,0.011,0.025
1.576240e-03,0.019,0.005
1.576320e-03,0.005,0.023
1.576400e-03,0.011,0.005
1.576480e-03,0.019,0.023
1.576560e-03,0.023,0.005
1.576640e-03,0.007,0.023
1.576720e-03,0.007,0.003
1.576800e-03,0.019,0.025
1.576880e-03,0.021,0.001
1.576960e-03,0.019,0.025
1.577040e-03,0.013,0.009
1.577120e-03,0.017,0.025
1.577200e-03,0.007,0.007
1.577280e-03,0.019,0.025
1.577360e-03,0.019,-0.001
1.577440e-03,0.017,0.023
1.577520e-03,0.009,0.009
1.577600e-03,0.013,0.023
1.577680e-03,0.021,0.009
1.577760e-03,0.023,0.025
1.577840e-03,0.027,0.005
1.577920e-03,0.027,0.029
1.578000e-03,0.023,-0.003
1.578080e-03,0.017,0.033
1.578160e-03,0.013,0.001
1.578240e-03,0.017,0.027
1.578320e-03,0.013,0.007
1.578400e-03,0.021,0.025
1.578480e-03,0.021,0.007
1.578560e-03,0.017,0.023
1.578640e-03,0.015,0.005
1.578720e-03,0.013,0.023
1.578800e-03,0.015,0.007
1.578880e-03,0.023,0.023
1.578960e-03,0.015,0.007
1.579040e-03,0.013,0.023
1.579120e-03,0.011,0.005
1.579200e-03,0.013,0.021
1.579280e-03,0.015,0.005
1.579360e-03,0.013,0.027
1.579440e-03,0.011,0.005
1.579520e-03,0.017,0.025
1.579600e-03,0.013,0.005
1.579680e-03,0.011,0.021
1.579760e-03,0.015,0.005
1.579840e-03,0.017,0.023
1.579920e-03,0.011,0.007
1.580000e-03,0.011,0.023
1.580080e-03,0.019,0.003
1.580160e-03,0.015,0.021
1.580240e-03,0.013,0.009
1.580320e-03,0.019,0.023
1.580400e-03,0.015,0.007
1.580480e-03,0.013,0.027
1.580560e-03,0.015,0.007
1.580640e-03,0.015,0.021
1.580720e-03,0.015,0.007
1.580800e-03,0.011,0.023
1.580880e-03,0.011,0.007
1.580960e-03,0.017,0.025
1.581040e-03,0.019,0.009
1.581120e-03,0.017,0.023
1.581200e-03,0.013,0.007
1.581280e-03,0.011,0.027
1.581360e-03,0.007,0.007
1.581440e-03,0.019,0.025
1.581520e-03,0.017,0.005
1.581600e-03,0.009,0.025
1.581680e-03,0.019,0.005
1.581760e-03,0.019,0.025
1.581840e-03,0.019,0.009
1.581920e-03,0.019,0.025
1.582000e-03,0.017,0.009
1.582080e-03,0.023,0.025
1.582160e-03,0.005,0.007
1.582240e-03,0.017,0.025
1.582320e-03,0.021,0.005
1.582400e-03,0.017,0.027
1.582480e-03,0.013,0.003
1.582560e-03,0.013,0.025
1.582640e-03,0.013,0.005
1.582720e-03,0.019,0.029
1.582800e-03,0.011,0.007
1.582880e-03,0.023,0.029
