data/com_laser1.CSV

Model,DPO2002B
Firmware Version,1.56

Point Format,Y,
Horizontal Units,S,
Horizontal Scale,0.01,
Sample Interval,8e-07,
Filter Frequency,7e+07,
Record Length,125000,
Gating,0.0% to 100.0%,
Probe Attenuation,10,
Vertical Units,V,
Vertical Offset,0,
Vertical Scale,0.1,
Label,,
TIME,CH2,CH2 Peak Detect
-4.78160e-02,0.052,0.064
-4.78152e-02,0.044,0.044
-4.78144e-02,0.056,0.068
-4.78136e-02,0.044,0.04
-4.78128e-02,0.056,0.068
-4.78120e-02,0.048,0.032
-4.78112e-02,0.048,0.076
-4.78104e-02,0.052,0.04
-4.78096e-02,0.056,0.064
-4.78088e-02,0.056,0.044
-4.78080e-02,0.056,0.064
-4.78072e-02,0.056,0.044
-4.78064e-02,0.06,0.068
-4.78056e-02,0.04,0.044
-4.78048e-02,0.048,0.064
-4.78040e-02,0.048,0.028
-4.78032e-02,0.056,0.076
-4.78024e-02,0.052,0.04
-4.78016e-02,0.052,0.068
-4.78008e-02,0.06,0.044
-4.78000e-02,0.056,0.068
-4.77992e-02,0.056,0.044
-4.77984e-02,0.052,0.068
-4.77976e-02,0.052,0.04
-4.77968e-02,0.048,0.064
-4.77960e-02,0.052,0.032
-4.77952e-02,0.056,0.076
-4.77944e-02,0.052,0.04
-4.77936e-02,0.052,0.064
-4.77928e-02,0.044,0.04
-4.77920e-02,0.048,0.064
-4.77912e-02,0.056,0.044
-4.77904e-02,0.052,0.064
-4.77896e-02,0.052,0.044
-4.77888e-02,0.056,0.064
-4.77880e-02,0.06,0.036
-4.77872e-02,0.052,0.076
-4.77864e-02,0.052,0.04
-4.77856e-02,0.056,0.064
-4.77848e-02,0.048,0.04
-4.77840e-02,0.06,0.068
-4.77832e-02,0.056,0.044
-4.77824e-02,0.056,0.068
-4.77816e-02,0.056,0.044
-4.77808e-02,0.052,0.068
-4.77800e-02,0.052,0.036
-4.77792e-02,0.048,0.076
-4.77784e-02,0.052,0.044
-4.77776e-02,0.056,0.068
-4.77768e-02,0.056,0.04
-4.77760e-02,0.056,0.064
-4.77752e-02,0.06,0.044
-4.77744e-02,0.052,0.068
-4.77736e-02,0.056,0.04
-4.77728e-02,0.056,0.068
-4.77720e-02,0.052,0.032
-4.77712e-02,0.06,0.072
-4.77704e-02,0.056,0.044
-4.77696e-02,0.056,0.064
-4.77688e-02,0.052,0.044
-4.77680e-02,0.052,0.068
-4.77672e-02,0.056,0.044
-4.77664e-02,0.056,0.064
-4.77656e-02,0.056,0.044
-4.77648e-02,0.056,0.064
-4.77640e-02,0.06,0.036
-4.77632e-02,0.048,0.076
-4.77624e-02,0.056,0.044
-4.77616e-02,0.048,0.068
-4.77608e-02,0.052,0.044
-4.77600e-02,0.056,0.064
-4.77592e-02,0.052,0.044
-4.77584e-02,0.06,0.064
-4.77576e-02,0.056,0.044
-4.77568e-02,0.052,0.068
-4.77560e-02,0.06,0.036
-4.77552e-02,0.064,0.084
-4.77544e-02,0.056,0.04
-4.77536e-02,0.052,0.064
-4.77528e-02,0.056,0.04
-4.77520e-02,0.052,0.068
-4.77512e-02,0.056,0.044
-4.77504e-02,0.056,0.064
-4.77496e-02,0.056,0.04
-4.77488e-02,0.052,0.064
-4.77480e-02,0.056,0.036
-4.77472e-02,0.056,0.076
-4.77464e-02,0.052,0.044
-4.77456e-02,0.052,0.068
-4.77448e-02,0.056,0.04
-4.77440e-02,0.056,0.064
-4.77432e-02,0.056,0.04
-4.77424e-02,0.048,0.068
-4.77416e-02,0.048,0.044
-4.77408e-02,0.056,0.06
-4.77400e-02,0.056,0.032
-4.77392e-02,0.056,0.072
-4.77384e-02,0.052,0.044
-4.77376e-02,0.06,0.068
-4.77368e-02,0.056,0.044
-4.77360e-02,0.052,0.068
-4.77352e-02,0.052,0.044
-4.77344e-02,0.056,0.068
-4.77336e-02,0.052,0.04
-4.77328e-02,0.052,0.068
-4.77320e-02,0.056,0.036
-4.77312e-02,0.052,0.072
-4.77304e-02,0.052,0.044
-4.77296e-02,0.052,0.064
-4.77288e-02,0.052,0.044
-4.77280e-02,0.056,0.064
-4.77272e-02,0.052,0.044
-4.77264e-02,0.056,0.064
-4.77256e-02,0.048,0.044
-4.77248e-02,0.048,0.068
-4.77240e-02,0.052,0.028
-4.77232e-02,0.056,0.072
-4.77224e-02,0.056,0.036
-4.77216e-02,0.048,0.064
-4.77208e-02,0.056,0.04
-4.77200e-02,0.052,0.064
-4.77192e-02,0.056,0.044
-4.77184e-02,0.044,0.068
-4.77176e-02,0.052,0.036
-4.77168e-02,0.056,0.072
-4.77160e-02,0.056,0.04
-4.77152e-02,0.052,0.068
-4.77144e-02,0.052,0.044
-4.77136e-02,0.048,0.068
-4.77128e-02,0.048,0.044
-4.77120e-02,0.052,0.068
-4.77112e-02,0.052,0.04
-4.77104e-02,0.044,0.064
-4.77096e-02,0.052,0.032
-4.77088e-02,0.052,0.08
-4.77080e-02,0.06,0.04
-4.77072e-02,0.056,0.072
-4.77064e-02,0.052,0.044
-4.77056e-02,0.056,0.064
-4.77048e-02,0.052,0.044
-4.77040e-02,0.056,0.068
-4.77032e-02,0.06,0.044
-4.77024e-02,0.056,0.068
-4.77016e-02,0.048,0.032
-4.77008e-02,0.056,0.076
-4.77000e-02,0.056,0.04
-4.76992e-02,0.056,0.064
-4.76984e-02,0.052,0.044
-4.76976e-02,0.052,0.064
-4.76968e-02,0.052,0.04
-4.76960e-02,0.056,0.064
-4.76952e-02,0.052,0.044
-4.76944e-02,0.056,0.072
-4.76936e-02,0.052,0.036
-4.76928e-02,0.06,0.072
-4.76920e-02,0.056,0.044
-4.76912e-02,0.052,0.068
-4.76904e-02,0.056,0.044
-4.76896e-02,0.052,0.064
-4.76888e-02,0.056,0.044
-4.76880e-02,0.06,0.064
-4.76872e-02,0.056,0.044
-4.76864e-02,0.06,0.064
-4.76856e-02,0.056,0.032
-4.76848e-02,0.052,0.076
-4.76840e-02,0.052,0.04
-4.76832e-02,0.06,0.064
-4.76824e-02,0.06,0.044
-4.76816e-02,0.06,0.064
-4.76808e-02,0.056,0.044
-4.76800e-02,0.056,0.064
-4.76792e-02,0.064,0.048
-4.76784e-02,0.048,0.068
-4.76776e-02,0.052,0.036
-4.76768e-02,0.056,0.076
-4.76760e-02,0.056,0.044
-4.76752e-02,0.052,0.068
-4.76744e-02,0.06,0.04
-4.76736e-02,0.056,0.068
-4.76728e-02,0.048,0.044
-4.76720e-02,0.06,0.068
-4.76712e-02,0.052,0.044
-4.76704e-02,0.052,0.068
-4.76696e-02,0.052,0.032
-4.76688e-02,0.06,0.076
-4.76680e-02,0.048,0.044
-4.76672e-02,0.06,0.064
-4.76664e-02,0.06,0.044
-4.76656e-02,0.056,0.068
-4.76648e-02,0.056,0.044
-4.76640e-02,0.052,0.064
-4.76632e-02,0.052,0.036
-4.76624e-02,0.056,0.064
-4.76616e-02,0.06,0.032
-4.76608e-02,0.052,0.072
-4.76600e-02,0.056,0.044
-4.76592e-02,0.06,0.064
-4.76584e-02,0.056,0.04
-4.76576e-02,0.06,0.064
-4.76568e-02,0.052,0.044
-4.76560e-02,0.048,0.068
-4.76552e-02,0.052,0.044
-4.76544e-02,0.048,0.064
-4.76536e-02,0.048,0.032
-4.76528e-02,0.056,0.076
-4.76520e-02,0.052,0.044
-4.76512e-02,0.056,0.064
-4.76504e-02,0.06,0.048
-4.76496e-02,0.052,0.068
-4.76488e-02,0.056,0.044
-4.76480e-02,0.056,0.068
-4.76472e-02,0.068,0.044
-4.76464e-02,0.052,0.064
-4.76456e-02,0.052,0.032
-4.76448e-02,0.056,0.072
-4.76440e-02,0.06,0.044
-4.76432e-02,0.052,0.068
-4.76424e-02,0.056,0.044
-4.76416e-02,0.06,0.068
-4.76408e-02,0.056,0.044
-4.76400e-02,0.06,0.064
-4.76392e-02,0.072,0.044
-4.76384e-02,0.06,0.068
-4.76376e-02,0.056,0.036
-4.76368e-02,0.056,0.076
-4.76360e-02,0.056,0.044
-4.76352e-02,0.052,0.072
-4.76344e-02,0.048,0.044
-4.76336e-02,0.06,0.068
-4.76328e-02,0.06,0.04
-4.76320e-02,0.052,0.064
-4.76312e-02,0.06,0.044
-4.76304e-02,0.052,0.064
-4.76296e-02,0.056,0.032
-4.76288e-02,0.052,0.076
-4.76280e-02,0.052,0.044
-4.76272e-02,0.06,0.064
-4.76264e-02,0.052,0.04
-4.76256e-02,0.052,0.064
-4.76248e-02,0.06,0.044
-4.76240e-02,0.056,0.064
-4.76232e-02,0.06,0.044
-4.76224e-02,0.056,0.068
-4.76216e-02,0.052,0.032
-4.76208e-02,0.052,0.076
-4.76200e-02,0.052,0.044
-4.76192e-02,0.056,0.064
-4.76184e-02,0.06,0.044
-4.76176e-02,0.06,0.064
-4.76168e-02,0.06,0.04
-4.76160e-02,0.048,0.068
-4.76152e-02,0.048,0.044
-4.76144e-02,0.056,0.068
-4.76136e-02,0.056,0.032
-4.76128e-02,0.056,0.084
-4.76120e-02,0.056,0.044
-4.76112e-02,0.052,0.068
-4.76104e-02,0.06,0.044
-4.76096e-02,0.056,0.064
-4.76088e-02,0.06,0.044
-4.76080e-02,0.052,0.068
-4.76072e-02,0.052,0.044
-4.76064e-02,0.052,0.072
-4.76056e-02,0.06,0.036
-4.76048e-02,0.056,0.08
-4.76040e-02,0.06,0.044
-4.76032e-02,0.056,0.068
-4.76024e-02,0.06,0.044
-4.76016e-02,0.06,0.068
-4.76008e-02,0.052,0.044
-4.76000e-02,0.06,0.068
-4.75992e-02,0.052,0.044
-4.75984e-02,0.06,0.068
-4.75976e-02,0.052,0.04
-4.75968e-02,0.056,0.072
-4.75960e-02,0.052,0.044
-4.75952e-02,0.064,0.064
-4.75944e-02,0.056,0.044
-4.75936e-02,0.056,0.068
-4.75928e-02,0.06,0.044
-4.75920e-02,0.052,0.068
-4.75912e-02,0.052,0.044
-4.75904e-02,0.056,0.064
-4.75896e-02,0.056,0.036
-4.75888e-02,0.048,0.076
-4.75880e-02,0.06,0.044
-4.75872e-02,0.052,0.068
-4.75864e-02,0.052,0.044
-4.75856e-02,0.052,0.064
-4.75848e-02,0.056,0.04
-4.75840e-02,0.048,0.064
-4.75832e-02,0.052,0.04
-4.75824e-02,0.048,0.072
-4.75816e-02,0.048,0.032
-4.75808e-02,0.056,0.08
-4.75800e-02,0.06,0.044
-4.75792e-02,0.048,0.064
-4.75784e-02,0.056,0.04
-4.75776e-02,0.056,0.072
-4.75768e-02,0.048,0.04
-4.75760e-02,0.052,0.064
-4.75752e-02,0.056,0.044
-4.75744e-02,0.052,0.068
-4.75736e-02,0.06,0.032
-4.75728e-02,0.052,0.08
-4.75720e-02,0.052,0.044
-4.75712e-02,0.06,0.064
-4.75704e-02,0.056,0.044
-4.75696e-02,0.06,0.064
-4.75688e-02,0.056,0.044
-4.75680e-02,0.048,0.072
-4.75672e-02,0.06,0.036
-4.75664e-02,0.056,0.068
-4.75656e-02,0.056,0.032
-4.75648e-02,0.06,0.08
-4.75640e-02,0.052,0.044
-4.75632e-02,0.056,0.072
-4.75624e-02,0.056,0.044
-4.75616e-02,0.06,0.068
-4.75608e-02,0.056,0.044
-4.75600e-02,0.044,0.064
-4.75592e-02,0.056,0.04
-4.75584e-02,0.056,0.068
-4.75576e-02,0.056,0.036
-4.75568e-02,0.048,0.076
-4.75560e-02,0.052,0.044
-4.75552e-02,0.052,0.068
-4.75544e-02,0.056,0.044
-4.75536e-02,0.052,0.068
-4.75528e-02,0.056,0.044
-4.75520e-02,0.04,0.064
-4.75512e-02,0.056,0.036
-4.75504e-02,0.056,0.076
-4.75496e-02,0.056,0.036
-4.75488e-02,0.056,0.072
-4.75480e-02,0.048,0.04
-4.75472e-02,0.056,0.068
-4.75464e-02,0.06,0.044
-4.75456e-02,0.064,0.068
-4.75448e-02,0.048,0.048
-4.75440e-02,0.044,0.068
-4.75432e-02,0.056,0.036
-4.75424e-02,0.056,0.072
-4.75416e-02,0.06,0.044
-4.75408e-02,0.06,0.064
-4.75400e-02,0.06,0.044
-4.75392e-02,0.056,0.068
-4.75384e-02,0.052,0.04
-4.75376e-02,0.056,0.068
-4.75368e-02,0.048,0.048
-4.75360e-02,0.056,0.064
-4.75352e-02,0.064,0.036
-4.75344e-02,0.056,0.08
-4.75336e-02,0.056,0.044
-4.75328e-02,0.06,0.068
-4.75320e-02,0.052,0.044
-4.75312e-02,0.056,0.068
-4.75304e-02,0.064,0.044
-4.75296e-02,0.052,0.064
-4.75288e-02,0.052,0.048
-4.75280e-02,0.06,0.068
-4.75272e-02,0.056,0.032
-4.75264e-02,0.056,0.076
-4.75256e-02,0.056,0.04
-4.75248e-02,0.06,0.064
-4.75240e-02,0.052,0.04
-4.75232e-02,0.056,0.068
-4.75224e-02,0.056,0.044
-4.75216e-02,0.056,0.064
-4.75208e-02,0.056,0.044
-4.75200e-02,0.06,0.068
-4.75192e-02,0.052,0.04
-4.75184e-02,0.056,0.076
-4.75176e-02,0.064,0.044
-4.75168e-02,0.06,0.068
-4.75160e-02,0.052,0.044
-4.75152e-02,0.06,0.072
-4.75144e-02,0.056,0.044
-4.75136e-02,0.056,0.068
-4.75128e-02,0.056,0.044
-4.75120e-02,0.06,0.072
-4.75112e-02,0.056,0.04
-4.75104e-02,0.056,0.084
-4.75096e-02,0.06,0.044
-4.75088e-02,0.056,0.068
-4.75080e-02,0.056,0.044
-4.75072e-02,0.056,0.068
-4.75064e-02,0.056,0.044
-4.75056e-02,0.06,0.068
-4.75048e-02,0.056,0.044
-4.75040e-02,0.052,0.064
-4.75032e-02,0.052,0.036
-4.75024e-02,0.052,0.076
-4.75016e-02,0.06,0.044
-4.75008e-02,0.06,0.064
-4.75000e-02,0.052,0.04
-4.74992e-02,0.06,0.064
-4.74984e-02,0.052,0.044
-4.74976e-02,0.06,0.064
-4.74968e-02,0.056,0.044
-4.74960e-02,0.052,0.064
-4.74952e-02,0.056,0.04
-4.74944e-02,0.06,0.084
-4.74936e-02,0.052,0.048
-4.74928e-02,0.06,0.068
-4.74920e-02,0.06,0.044
-4.74912e-02,0.064,0.068
-4.74904e-02,0.06,0.048
-4.74896e-02,0.048,0.068
-4.74888e-02,0.064,0.044
-4.74880e-02,0.06,0.068
-4.74872e-02,0.056,0.032
-4.74864e-02,0.06,0.08
-4.74856e-02,0.06,0.044
-4.74848e-02,0.06,0.068
-4.74840e-02,0.056,0.044
-4.74832e-02,0.056,0.068
-4.74824e-02,0.056,0.044
-4.74816e-02,0.064,0.068
-4.74808e-02,0.068,0.048
-4.74800e-02,0.056,0.068
-4.74792e-02,0.056,0.04
-4.74784e-02,0.056,0.076
-4.74776e-02,0.064,0.044
-4.74768e-02,0.06,0.068
-4.74760e-02,0.06,0.044
-4.74752e-02,0.056,0.068
-4.74744e-02,0.06,0.048
-4.74736e-02,0.052,0.068
-4.74728e-02,0.076,0.044
-4.74720e-02,0.056,0.068
-4.74712e-02,0.056,0.032
-4.74704e-02,0.056,0.08
-4.74696e-02,0.052,0.044
-4.74688e-02,0.056,0.068
-4.74680e-02,0.048,0.044
-4.74672e-02,0.056,0.068
-4.74664e-02,0.06,0.044
-4.74656e-02,0.052,0.068
-4.74648e-02,0.06,0.044
-4.74640e-02,0.056,0.068
-4.74632e-02,0.052,0.04
-4.74624e-02,0.056,0.076
-4.74616e-02,0.056,0.044
-4.74608e-02,0.056,0.068
-4.74600e-02,0.056,0.044
-4.74592e-02,0.06,0.068
-4.74584e-02,0.056,0.048
-4.74576e-02,0.06,0.068
-4.74568e-02,0.06,0.048
-4.74560e-02,0.06,0.068
-4.74552e-02,0.052,0.036
-4.74544e-02,0.052,0.076
-4.74536e-02,0.056,0.044
-4.74528e-02,0.052,0.068
-4.74520e-02,0.06,0.044
-4.74512e-02,0.056,0.068
-4.74504e-02,0.056,0.044
-4.74496e-02,0.056,0.072
-4.74488e-02,0.056,0.044
-4.74480e-02,0.052,0.064
-4.74472e-02,0.056,0.036
-4.74464e-02,0.06,0.08
-4.74456e-02,0.06,0.048
-4.74448e-02,0.06,0.068
-4.74440e-02,0.052,0.044
-4.74432e-02,0.056,0.068
-4.74424e-02,0.052,0.048
-4.74416e-02,0.056,0.072
-4.74408e-02,0.06,0.048
-4.74400e-02,0.052,0.072
-4.74392e-02,0.06,0.036
-4.74384e-02,0.064,0.08
-4.74376e-02,0.06,0.044
-4.74368e-02,0.06,0.068
-4.74360e-02,0.056,0.048
-4.74352e-02,0.064,0.072
-4.74344e-02,0.056,0.044
-4.74336e-02,0.056,0.068
-4.74328e-02,0.056,0.044
-4.74320e-02,0.064,0.072
-4.74312e-02,0.052,0.032
-4.74304e-02,0.064,0.076
-4.74296e-02,0.06,0.048
-4.74288e-02,0.052,0.068
-4.74280e-02,0.056,0.044
-4.74272e-02,0.056,0.072
-4.74264e-02,0.06,0.044
-4.74256e-02,0.056,0.068
-4.74248e-02,0.052,0.048
-4.74240e-02,0.056,0.068
-4.74232e-02,0.06,0.04
-4.74224e-02,0.052,0.08
-4.74216e-02,0.06,0.044
-4.74208e-02,0.056,0.072
-4.74200e-02,0.052,0.044
-4.74192e-02,0.056,0.068
-4.74184e-02,0.056,0.044
-4.74176e-02,0.056,0.068
-4.74168e-02,0.06,0.048
-4.74160e-02,0.056,0.068
-4.74152e-02,0.064,0.04
-4.74144e-02,0.06,0.076
-4.74136e-02,0.064,0.044
-4.74128e-02,0.068,0.072
-4.74120e-02,0.056,0.048
-4.74112e-02,0.06,0.072
-4.74104e-02,0.06,0.048
-4.74096e-02,0.064,0.072
-4.74088e-02,0.056,0.052
-4.74080e-02,0.06,0.072
-4.74072e-02,0.056,0.036
-4.74064e-02,0.06,0.084
-4.74056e-02,0.056,0.044
-4.74048e-02,0.06,0.068
-4.74040e-02,0.064,0.044
-4.74032e-02,0.06,0.068
-4.74024e-02,0.056,0.048
-4.74016e-02,0.048,0.072
-4.74008e-02,0.06,0.048
-4.74000e-02,0.056,0.072
-4.73992e-02,0.06,0.04
-4.73984e-02,0.056,0.084
-4.73976e-02,0.06,0.048
-4.73968e-02,0.06,0.068
-4.73960e-02,0.052,0.044
-4.73952e-02,0.06,0.076
-4.73944e-02,0.056,0.044
-4.73936e-02,0.048,0.072
-4.73928e-02,0.064,0.04
-4.73920e-02,0.052,0.068
-4.73912e-02,0.06,0.032
-4.73904e-02,0.056,0.084
-4.73896e-02,0.06,0.044
-4.73888e-02,0.06,0.072
-4.73880e-02,0.056,0.044
-4.73872e-02,0.056,0.068
-4.73864e-02,0.06,0.044
-4.73856e-02,0.052,0.068
-4.73848e-02,0.06,0.044
-4.73840e-02,0.056,0.08
-4.73832e-02,0.056,0.04
-4.73824e-02,0.064,0.072
-4.73816e-02,0.064,0.044
-4.73808e-02,0.06,0.072
-4.73800e-02,0.06,0.048
-4.73792e-02,0.052,0.068
-4.73784e-02,0.064,0.048
-4.73776e-02,0.056,0.072
-4.73768e-02,0.06,0.04
-4.73760e-02,0.06,0.076
-4.73752e-02,0.056,0.048
-4.73744e-02,0.064,0.076
-4.73736e-02,0.064,0.048
-4.73728e-02,0.06,0.072
-4.73720e-02,0.064,0.048
-4.73712e-02,0.056,0.068
-4.73704e-02,0.056,0.052
-4.73696e-02,0.064,0.072
-4.73688e-02,0.052,0.036
-4.73680e-02,0.06,0.08
-4.73672e-02,0.06,0.048
-4.73664e-02,0.06,0.072
-4.73656e-02,0.056,0.048
-4.73648e-02,0.056,0.068
-4.73640e-02,0.056,0.048
-4.73632e-02,0.06,0.068
-4.73624e-02,0.056,0.044
-4.73616e-02,0.056,0.072
-4.73608e-02,0.052,0.036
-4.73600e-02,0.06,0.08
-4.73592e-02,0.06,0.048
-4.73584e-02,0.06,0.072
-4.73576e-02,0.056,0.048
-4.73568e-02,0.06,0.068
-4.73560e-02,0.06,0.048
-4.73552e-02,0.056,0.068
-4.73544e-02,0.056,0.044
-4.73536e-02,0.056,0.068
-4.73528e-02,0.064,0.036
-4.73520e-02,0.056,0.08
-4.73512e-02,0.056,0.048
-4.73504e-02,0.06,0.068
-4.73496e-02,0.056,0.048
-4.73488e-02,0.06,0.068
-4.73480e-02,0.06,0.048
-4.73472e-02,0.056,0.068
-4.73464e-02,0.056,0.048
-4.73456e-02,0.064,0.068
-4.73448e-02,0.06,0.036
-4.73440e-02,0.06,0.08
-4.73432e-02,0.06,0.044
-4.73424e-02,0.06,0.072
-4.73416e-02,0.052,0.044
-4.73408e-02,0.06,0.068
-4.73400e-02,0.064,0.048
-4.73392e-02,0.056,0.068
-4.73384e-02,0.056,0.048
-4.73376e-02,0.064,0.072
-4.73368e-02,0.056,0.04
-4.73360e-02,0.06,0.08
-4.73352e-02,0.06,0.044
-4.73344e-02,0.072,0.068
-4.73336e-02,0.056,0.044
-4.73328e-02,0.056,0.072
-4.73320e-02,0.052,0.044
-4.73312e-02,0.06,0.072
-4.73304e-02,0.052,0.048
-4.73296e-02,0.064,0.072
-4.73288e-02,0.056,0.036
-4.73280e-02,0.052,0.084
-4.73272e-02,0.056,0.048
-4.73264e-02,0.06,0.072
-4.73256e-02,0.056,0.048
-4.73248e-02,0.052,0.068
-4.73240e-02,0.06,0.048
-4.73232e-02,0.056,0.068
-4.73224e-02,0.056,0.044
-4.73216e-02,0.064,0.068
-4.73208e-02,0.064,0.04
-4.73200e-02,0.06,0.08
-4.73192e-02,0.06,0.048
-4.73184e-02,0.06,0.072
-4.73176e-02,0.072,0.048
-4.73168e-02,0.06,0.072
-4.73160e-02,0.064,0.052
-4.73152e-02,0.064,0.072
-4.73144e-02,0.064,0.048
-4.73136e-02,0.06,0.072
-4.73128e-02,0.06,0.04
-4.73120e-02,0.056,0.08
-4.73112e-02,0.06,0.048
-4.73104e-02,0.06,0.072
-4.73096e-02,0.056,0.044
-4.73088e-02,0.06,0.068
-4.73080e-02,0.06,0.048
-4.73072e-02,0.06,0.072
-4.73064e-02,0.064,0.044
-4.73056e-02,0.06,0.076
-4.73048e-02,0.06,0.04
-4.73040e-02,0.06,0.076
-4.73032e-02,0.056,0.048
-4.73024e-02,0.06,0.076
-4.73016e-02,0.056,0.048
-4.73008e-02,0.06,0.068
-4.73000e-02,0.06,0.048
-4.72992e-02,0.064,0.072
-4.72984e-02,0.056,0.048
-4.72976e-02,0.06,0.068
-4.72968e-02,0.064,0.04
-4.72960e-02,0.064,0.084
-4.72952e-02,0.068,0.048
-4.72944e-02,0.056,0.072
-4.72936e-02,0.06,0.048
-4.72928e-02,0.064,0.076
-4.72920e-02,0.06,0.048
-4.72912e-02,0.06,0.072
-4.72904e-02,0.052,0.048
-4.72896e-02,0.056,0.072
-4.72888e-02,0.056,0.044
-4.72880e-02,0.064,0.084
-4.72872e-02,0.064,0.052
-4.72864e-02,0.06,0.072
-4.72856e-02,0.064,0.048
-4.72848e-02,0.06,0.072
-4.72840e-02,0.052,0.048
-4.72832e-02,0.06,0.072
-4.72824e-02,0.052,0.048
-4.72816e-02,0.06,0.072
-4.72808e-02,0.056,0.032
-4.72800e-02,0.064,0.08
-4.72792e-02,0.06,0.048
-4.72784e-02,0.056,0.072
-4.72776e-02,0.064,0.048
-4.72768e-02,0.06,0.072
-4.72760e-02,0.06,0.048
-4.72752e-02,0.064,0.072
-4.72744e-02,0.072,0.052
-4.72736e-02,0.06,0.076
-4.72728e-02,0.06,0.044
-4.72720e-02,0.06,0.084
-4.72712e-02,0.064,0.048
-4.72704e-02,0.068,0.072
-4.72696e-02,0.064,0.048
-4.72688e-02,0.06,0.072
-4.72680e-02,0.06,0.052
-4.72672e-02,0.06,0.076
-4.72664e-02,0.06,0.052
-4.72656e-02,0.068,0.072
-4.72648e-02,0.064,0.036
-4.72640e-02,0.064,0.08
-4.72632e-02,0.064,0.048
-4.72624e-02,0.064,0.072
-4.72616e-02,0.06,0.052
-4.72608e-02,0.056,0.072
-4.72600e-02,0.064,0.048
-4.72592e-02,0.06,0.072
-4.72584e-02,0.056,0.048
-4.72576e-02,0.064,0.068
-4.72568e-02,0.06,0.04
-4.72560e-02,0.068,0.08
-4.72552e-02,0.06,0.052
-4.72544e-02,0.056,0.072
-4.72536e-02,0.064,0.044
-4.72528e-02,0.056,0.072
-4.72520e-02,0.056,0.048
-4.72512e-02,0.064,0.068
-4.72504e-02,0.06,0.052
-4.72496e-02,0.06,0.072
-4.72488e-02,0.068,0.036
-4.72480e-02,0.056,0.084
-4.72472e-02,0.064,0.048
-4.72464e-02,0.06,0.068
-4.72456e-02,0.06,0.048
-4.72448e-02,0.056,0.072
-4.72440e-02,0.056,0.048
-4.72432e-02,0.052,0.072
-4.72424e-02,0.056,0.048
-4.72416e-02,0.064,0.072
-4.72408e-02,0.064,0.044
-4.72400e-02,0.056,0.08
-4.72392e-02,0.064,0.052
-4.72384e-02,0.06,0.072
-4.72376e-02,0.06,0.044
-4.72368e-02,0.056,0.076
-4.72360e-02,0.064,0.048
-4.72352e-02,0.072,0.072
-4.72344e-02,0.068,0.052
-4.72336e-02,0.064,0.08
-4.72328e-02,0.056,0.044
-4.72320e-02,0.056,0.08
-4.72312e-02,0.06,0.052
-4.72304e-02,0.056,0.076
-4.72296e-02,0.064,0.048
-4.72288e-02,0.064,0.076
-4.72280e-02,0.064,0.048
-4.72272e-02,0.064,0.072
-4.72264e-02,0.06,0.044
-4.72256e-02,0.068,0.08
-4.72248e-02,0.064,0.044
-4.72240e-02,0.068,0.084
-4.72232e-02,0.06,0.052
-4.72224e-02,0.06,0.076
-4.72216e-02,0.068,0.052
-4.72208e-02,0.064,0.076
-4.72200e-02,0.06,0.052
-4.72192e-02,0.076,0.072
-4.72184e-02,0.06,0.04
-4.72176e-02,0.06,0.084
-4.72168e-02,0.064,0.036
-4.72160e-02,0.064,0.076
-4.72152e-02,0.06,0.048
-4.72144e-02,0.06,0.072
-4.72136e-02,0.064,0.048
-4.72128e-02,0.06,0.072
-4.72120e-02,0.064,0.048
-4.72112e-02,0.072,0.076
-4.72104e-02,0.068,0.036
-4.72096e-02,0.06,0.084
-4.72088e-02,0.064,0.052
-4.72080e-02,0.06,0.076
-4.72072e-02,0.068,0.052
-4.72064e-02,0.064,0.072
-4.72056e-02,0.06,0.052
-4.72048e-02,0.064,0.076
-4.72040e-02,0.056,0.052
-4.72032e-02,0.06,0.072
-4.72024e-02,0.064,0.044
-4.72016e-02,0.06,0.084
-4.72008e-02,0.06,0.048
-4.72000e-02,0.068,0.072
-4.71992e-02,0.068,0.048
-4.71984e-02,0.068,0.072
-4.71976e-02,0.064,0.052
-4.71968e-02,0.064,0.076
-4.71960e-02,0.064,0.056
-4.71952e-02,0.064,0.076
-4.71944e-02,0.06,0.044
-4.71936e-02,0.06,0.084
-4.71928e-02,0.06,0.048
-4.71920e-02,0.068,0.076
-4.71912e-02,0.06,0.052
-4.71904e-02,0.064,0.072
-4.71896e-02,0.064,0.052
-4.71888e-02,0.06,0.076
-4.71880e-02,0.06,0.052
-4.71872e-02,0.064,0.072
-4.71864e-02,0.06,0.04
-4.71856e-02,0.06,0.088
-4.71848e-02,0.06,0.048
-4.71840e-02,0.064,0.072
-4.71832e-02,0.068,0.048
-4.71824e-02,0.064,0.076
-4.71816e-02,0.06,0.052
-4.71808e-02,0.064,0.076
-4.71800e-02,0.064,0.052
-4.71792e-02,0.064,0.076
-4.71784e-02,0.072,0.044
-4.71776e-02,0.068,0.088
-4.71768e-02,0.06,0.052
