data/com_laser3.CSV

Model,DPO2002B
Firmware Version,1.56

Point Format,Y,
Horizontal Units,S,
Horizontal Scale,0.004,
Sample Interval,3.2e-07,
Filter Frequency,7e+07,
Record Length,125000,
Gating,0.0% to 100.0%,
Probe Attenuation,10,
Vertical Units,V,
Vertical Offset,0,
Vertical Scale,0.1,
Label,,
TIME,CH2,CH2 Peak Detect
-1.78160e-02,0.22,0.232
-1.78157e-02,0.22,0.212
-1.78154e-02,0.216,0.232
-1.78150e-02,0.224,0.208
-1.78147e-02,0.212,0.236
-1.78144e-02,0.224,0.2
-1.78141e-02,0.224,0.24
-1.78138e-02,0.216,0.2
-1.78134e-02,0.224,0.24
-1.78131e-02,0.224,0.212
-1.78128e-02,0.22,0.236
-1.78125e-02,0.228,0.212
-1.78122e-02,0.224,0.236
-1.78118e-02,0.232,0.208
-1.78115e-02,0.224,0.236
-1.78112e-02,0.216,0.208
-1.78109e-02,0.224,0.236
-1.78106e-02,0.224,0.212
-1.78102e-02,0.224,0.232
-1.78099e-02,0.228,0.212
-1.78096e-02,0.216,0.232
-1.78093e-02,0.224,0.212
-1.78090e-02,0.228,0.236
-1.78086e-02,0.224,0.212
-1.78083e-02,0.228,0.236
-1.78080e-02,0.224,0.212
-1.78077e-02,0.22,0.236
-1.78074e-02,0.228,0.212
-1.78070e-02,0.228,0.236
-1.78067e-02,0.216,0.212
-1.78064e-02,0.224,0.232
-1.78061e-02,0.228,0.2
-1.78058e-02,0.224,0.244
-1.78054e-02,0.22,0.208
-1.78051e-02,0.228,0.236
-1.78048e-02,0.228,0.212
-1.78045e-02,0.232,0.236
-1.78042e-02,0.22,0.212
-1.78038e-02,0.228,0.232
-1.78035e-02,0.224,0.212
-1.78032e-02,0.228,0.232
-1.78029e-02,0.22,0.212
-1.78026e-02,0.224,0.236
-1.78022e-02,0.232,0.212
-1.78019e-02,0.228,0.236
-1.78016e-02,0.232,0.212
-1.78013e-02,0.228,0.236
-1.78010e-02,0.224,0.212
-1.78006e-02,0.228,0.244
-1.78003e-02,0.228,0.216
-1.78000e-02,0.216,0.236
-1.77997e-02,0.224,0.216
-1.77994e-02,0.228,0.236
-1.77990e-02,0.232,0.216
-1.77987e-02,0.228,0.24
-1.77984e-02,0.224,0.208
-1.77981e-02,0.232,0.252
-1.77978e-02,0.228,0.212
-1.77974e-02,0.228,0.24
-1.77971e-02,0.224,0.212
-1.77968e-02,0.228,0.236
-1.77965e-02,0.228,0.216
-1.77962e-02,0.224,0.236
-1.77958e-02,0.232,0.216
-1.77955e-02,0.228,0.236
-1.77952e-02,0.228,0.216
-1.77949e-02,0.22,0.236
-1.77946e-02,0.232,0.216
-1.77942e-02,0.224,0.236
-1.77939e-02,0.224,0.212
-1.77936e-02,0.232,0.236
-1.77933e-02,0.224,0.216
-1.77930e-02,0.228,0.236
-1.77926e-02,0.22,0.216
-1.77923e-02,0.232,0.24
-1.77920e-02,0.232,0.212
-1.77917e-02,0.232,0.24
-1.77914e-02,0.228,0.212
-1.77910e-02,0.232,0.244
-1.77907e-02,0.228,0.212
-1.77904e-02,0.228,0.24
-1.77901e-02,0.224,0.208
-1.77898e-02,0.224,0.248
-1.77894e-02,0.232,0.216
-1.77891e-02,0.232,0.24
-1.77888e-02,0.224,0.216
-1.77885e-02,0.232,0.24
-1.77882e-02,0.228,0.216
-1.77878e-02,0.224,0.236
-1.77875e-02,0.228,0.22
-1.77872e-02,0.236,0.24
-1.77869e-02,0.232,0.22
-1.77866e-02,0.236,0.24
-1.77862e-02,0.22,0.216
-1.77859e-02,0.232,0.24
-1.77856e-02,0.232,0.22
-1.77853e-02,0.232,0.24
-1.77850e-02,0.232,0.22
-1.77846e-02,0.232,0.24
-1.77843e-02,0.232,0.22
-1.77840e-02,0.232,0.24
-1.77837e-02,0.236,0.216
-1.77834e-02,0.228,0.244
-1.77830e-02,0.236,0.216
-1.77827e-02,0.232,0.244
-1.77824e-02,0.224,0.208
-1.77821e-02,0.232,0.256
-1.77818e-02,0.232,0.212
-1.77814e-02,0.236,0.248
-1.77811e-02,0.236,0.216
-1.77808e-02,0.232,0.244
-1.77805e-02,0.228,0.22
-1.77802e-02,0.232,0.244
-1.77798e-02,0.236,0.22
-1.77795e-02,0.236,0.244
-1.77792e-02,0.228,0.22
-1.77789e-02,0.232,0.24
-1.77786e-02,0.236,0.22
-1.77782e-02,0.24,0.244
-1.77779e-02,0.228,0.22
-1.77776e-02,0.236,0.24
-1.77773e-02,0.228,0.216
-1.77770e-02,0.232,0.24
-1.77766e-02,0.232,0.22
-1.77763e-02,0.24,0.24
-1.77760e-02,0.236,0.224
-1.77757e-02,0.232,0.244
-1.77754e-02,0.24,0.22
-1.77750e-02,0.24,0.244
-1.77747e-02,0.236,0.212
-1.77744e-02,0.232,0.256
-1.77741e-02,0.236,0.216
-1.77738e-02,0.232,0.244
-1.77734e-02,0.228,0.22
-1.77731e-02,0.236,0.24
-1.77728e-02,0.232,0.224
-1.77725e-02,0.228,0.248
-1.77722e-02,0.24,0.216
-1.77718e-02,0.232,0.248
-1.77715e-02,0.24,0.22
-1.77712e-02,0.24,0.248
-1.77709e-02,0.236,0.22
-1.77706e-02,0.228,0.244
-1.77702e-02,0.236,0.224
-1.77699e-02,0.236,0.244
-1.77696e-02,0.24,0.22
-1.77693e-02,0.232,0.244
-1.77690e-02,0.232,0.224
-1.77686e-02,0.236,0.244
-1.77683e-02,0.232,0.22
-1.77680e-02,0.232,0.244
-1.77677e-02,0.24,0.224
-1.77674e-02,0.236,0.244
-1.77670e-02,0.232,0.22
-1.77667e-02,0.24,0.244
-1.77664e-02,0.224,0.212
-1.77661e-02,0.236,0.252
-1.77658e-02,0.232,0.22
-1.77654e-02,0.228,0.244
-1.77651e-02,0.232,0.224
-1.77648e-02,0.232,0.244
-1.77645e-02,0.24,0.22
-1.77642e-02,0.236,0.244
-1.77638e-02,0.232,0.22
-1.77635e-02,0.236,0.244
-1.77632e-02,0.236,0.22
-1.77629e-02,0.24,0.244
-1.77626e-02,0.232,0.224
-1.77622e-02,0.232,0.244
-1.77619e-02,0.244,0.22
-1.77616e-02,0.232,0.256
-1.77613e-02,0.244,0.224
-1.77610e-02,0.236,0.252
-1.77606e-02,0.232,0.224
-1.77603e-02,0.24,0.248
-1.77600e-02,0.236,0.224
-1.77597e-02,0.236,0.248
-1.77594e-02,0.248,0.228
-1.77590e-02,0.232,0.248
-1.77587e-02,0.24,0.204
-1.77584e-02,0.236,0.26
-1.77581e-02,0.24,0.224
-1.77578e-02,0.232,0.248
-1.77574e-02,0.236,0.224
-1.77571e-02,0.232,0.248
-1.77568e-02,0.236,0.228
-1.77565e-02,0.24,0.244
-1.77562e-02,0.232,0.224
-1.77558e-02,0.236,0.244
-1.77555e-02,0.236,0.224
-1.77552e-02,0.24,0.248
-1.77549e-02,0.236,0.224
-1.77546e-02,0.236,0.244
-1.77542e-02,0.232,0.224
-1.77539e-02,0.24,0.248
-1.77536e-02,0.24,0.224
-1.77533e-02,0.24,0.248
-1.77530e-02,0.236,0.224
-1.77526e-02,0.236,0.248
-1.77523e-02,0.24,0.228
-1.77520e-02,0.236,0.252
-1.77517e-02,0.244,0.228
-1.77514e-02,0.256,0.252
-1.77510e-02,0.236,0.22
-1.77507e-02,0.236,0.256
-1.77504e-02,0.24,0.22
-1.77501e-02,0.24,0.256
-1.77498e-02,0.24,0.228
-1.77494e-02,0.244,0.248
-1.77491e-02,0.236,0.228
-1.77488e-02,0.244,0.248
-1.77485e-02,0.24,0.232
-1.77482e-02,0.244,0.252
-1.77478e-02,0.236,0.232
-1.77475e-02,0.236,0.252
-1.77472e-02,0.236,0.232
-1.77469e-02,0.24,0.252
-1.77466e-02,0.244,0.228
-1.77462e-02,0.244,0.248
-1.77459e-02,0.236,0.232
-1.77456e-02,0.24,0.252
-1.77453e-02,0.24,0.232
-1.77450e-02,0.244,0.252
-1.77446e-02,0.24,0.228
-1.77443e-02,0.24,0.252
-1.77440e-02,0.24,0.228
-1.77437e-02,0.236,0.248
-1.77434e-02,0.248,0.232
-1.77430e-02,0.244,0.248
-1.77427e-02,0.24,0.216
-1.77424e-02,0.24,0.26
-1.77421e-02,0.24,0.224
-1.77418e-02,0.24,0.252
-1.77414e-02,0.244,0.228
-1.77411e-02,0.244,0.252
-1.77408e-02,0.244,0.224
-1.77405e-02,0.236,0.252
-1.77402e-02,0.236,0.228
-1.77398e-02,0.236,0.252
-1.77395e-02,0.24,0.228
-1.77392e-02,0.244,0.248
-1.77389e-02,0.24,0.232
-1.77386e-02,0.248,0.252
-1.77382e-02,0.244,0.228
-1.77379e-02,0.244,0.252
-1.77376e-02,0.24,0.228
-1.77373e-02,0.244,0.252
-1.77370e-02,0.24,0.232
-1.77366e-02,0.24,0.252
-1.77363e-02,0.244,0.232
-1.77360e-02,0.24,0.252
-1.77357e-02,0.244,0.228
-1.77354e-02,0.248,0.256
-1.77350e-02,0.248,0.22
-1.77347e-02,0.244,0.26
-1.77344e-02,0.248,0.228
-1.77341e-02,0.236,0.256
-1.77338e-02,0.248,0.232
-1.77334e-02,0.24,0.26
-1.77331e-02,0.248,0.232
-1.77328e-02,0.248,0.252
-1.77325e-02,0.232,0.232
-1.77322e-02,0.24,0.256
-1.77318e-02,0.252,0.224
-1.77315e-02,0.24,0.252
-1.77312e-02,0.244,0.232
-1.77309e-02,0.236,0.256
-1.77306e-02,0.236,0.228
-1.77302e-02,0.24,0.252
-1.77299e-02,0.244,0.232
-1.77296e-02,0.244,0.252
-1.77293e-02,0.244,0.228
-1.77290e-02,0.248,0.252
-1.77286e-02,0.248,0.232
-1.77283e-02,0.24,0.252
-1.77280e-02,0.24,0.232
-1.77277e-02,0.24,0.252
-1.77274e-02,0.244,0.228
-1.77270e-02,0.244,0.256
-1.77267e-02,0.248,0.22
-1.77264e-02,0.248,0.26
-1.77261e-02,0.248,0.232
-1.77258e-02,0.244,0.256
-1.77254e-02,0.248,0.232
-1.77251e-02,0.244,0.252
-1.77248e-02,0.24,0.232
-1.77245e-02,0.24,0.256
-1.77242e-02,0.248,0.232
-1.77238e-02,0.236,0.256
-1.77235e-02,0.26,0.236
-1.77232e-02,0.244,0.252
-1.77229e-02,0.252,0.232
-1.77226e-02,0.244,0.26
-1.77222e-02,0.24,0.236
-1.77219e-02,0.248,0.256
-1.77216e-02,0.244,0.232
-1.77213e-02,0.248,0.26
-1.77210e-02,0.244,0.236
-1.77206e-02,0.252,0.26
-1.77203e-02,0.244,0.236
-1.77200e-02,0.244,0.256
-1.77197e-02,0.248,0.236
-1.77194e-02,0.248,0.256
-1.77190e-02,0.252,0.228
-1.77187e-02,0.244,0.264
-1.77184e-02,0.252,0.236
-1.77181e-02,0.24,0.256
-1.77178e-02,0.252,0.236
-1.77174e-02,0.248,0.256
-1.77171e-02,0.244,0.236
-1.77168e-02,0.244,0.256
-1.77165e-02,0.248,0.236
-1.77162e-02,0.244,0.26
-1.77158e-02,0.244,0.24
-1.77155e-02,0.244,0.256
-1.77152e-02,0.244,0.236
-1.77149e-02,0.244,0.256
-1.77146e-02,0.24,0.236
-1.77142e-02,0.252,0.26
-1.77139e-02,0.248,0.236
-1.77136e-02,0.24,0.256
-1.77133e-02,0.248,0.236
-1.77130e-02,0.244,0.26
-1.77126e-02,0.244,0.236
-1.77123e-02,0.244,0.256
-1.77120e-02,0.248,0.236
-1.77117e-02,0.24,0.26
-1.77114e-02,0.24,0.228
-1.77110e-02,0.252,0.268
-1.77107e-02,0.252,0.232
-1.77104e-02,0.244,0.26
-1.77101e-02,0.248,0.236
-1.77098e-02,0.244,0.26
-1.77094e-02,0.248,0.24
-1.77091e-02,0.248,0.26
-1.77088e-02,0.248,0.236
-1.77085e-02,0.248,0.256
-1.77082e-02,0.248,0.24
-1.77078e-02,0.248,0.256
-1.77075e-02,0.248,0.24
-1.77072e-02,0.252,0.256
-1.77069e-02,0.248,0.24
-1.77066e-02,0.256,0.26
-1.77062e-02,0.248,0.244
-1.77059e-02,0.248,0.264
-1.77056e-02,0.252,0.244
-1.77053e-02,0.244,0.26
-1.77050e-02,0.256,0.24
-1.77046e-02,0.256,0.264
-1.77043e-02,0.256,0.236
-1.77040e-02,0.244,0.26
-1.77037e-02,0.244,0.24
-1.77034e-02,0.244,0.26
-1.77030e-02,0.252,0.224
-1.77027e-02,0.252,0.268
-1.77024e-02,0.24,0.236
-1.77021e-02,0.256,0.26
-1.77018e-02,0.252,0.236
-1.77014e-02,0.252,0.264
-1.77011e-02,0.252,0.236
-1.77008e-02,0.248,0.256
-1.77005e-02,0.244,0.232
-1.77002e-02,0.244,0.256
-1.76998e-02,0.252,0.24
-1.76995e-02,0.256,0.26
-1.76992e-02,0.248,0.24
-1.76989e-02,0.252,0.26
-1.76986e-02,0.252,0.24
-1.76982e-02,0.256,0.26
-1.76979e-02,0.256,0.24
-1.76976e-02,0.244,0.26
-1.76973e-02,0.244,0.24
-1.76970e-02,0.252,0.264
-1.76966e-02,0.248,0.24
-1.76963e-02,0.252,0.26
-1.76960e-02,0.248,0.24
-1.76957e-02,0.252,0.26
-1.76954e-02,0.24,0.228
-1.76950e-02,0.248,0.272
-1.76947e-02,0.252,0.236
-1.76944e-02,0.252,0.26
-1.76941e-02,0.244,0.24
-1.76938e-02,0.252,0.26
-1.76934e-02,0.248,0.236
-1.76931e-02,0.244,0.26
-1.76928e-02,0.248,0.24
-1.76925e-02,0.248,0.26
-1.76922e-02,0.248,0.244
-1.76918e-02,0.248,0.264
-1.76915e-02,0.248,0.236
-1.76912e-02,0.256,0.26
-1.76909e-02,0.256,0.24
-1.76906e-02,0.256,0.264
-1.76902e-02,0.248,0.24
-1.76899e-02,0.252,0.264
-1.76896e-02,0.252,0.24
-1.76893e-02,0.248,0.26
-1.76890e-02,0.252,0.236
-1.76886e-02,0.252,0.26
-1.76883e-02,0.252,0.24
-1.76880e-02,0.244,0.26
-1.76877e-02,0.26,0.236
-1.76874e-02,0.252,0.264
-1.76870e-02,0.252,0.232
-1.76867e-02,0.252,0.276
-1.76864e-02,0.256,0.24
-1.76861e-02,0.26,0.264
-1.76858e-02,0.248,0.244
-1.76854e-02,0.256,0.264
-1.76851e-02,0.26,0.244
-1.76848e-02,0.26,0.264
-1.76845e-02,0.252,0.244
-1.76842e-02,0.256,0.264
-1.76838e-02,0.256,0.244
-1.76835e-02,0.256,0.268
-1.76832e-02,0.256,0.244
-1.76829e-02,0.26,0.268
-1.76826e-02,0.252,0.248
-1.76822e-02,0.256,0.264
-1.76819e-02,0.252,0.24
-1.76816e-02,0.256,0.268
-1.76813e-02,0.252,0.244
-1.76810e-02,0.264,0.264
-1.76806e-02,0.256,0.244
-1.76803e-02,0.256,0.268
-1.76800e-02,0.24,0.244
-1.76797e-02,0.248,0.264
-1.76794e-02,0.256,0.236
-1.76790e-02,0.252,0.276
-1.76787e-02,0.252,0.244
-1.76784e-02,0.252,0.264
-1.76781e-02,0.252,0.244
-1.76778e-02,0.252,0.264
-1.76774e-02,0.256,0.244
-1.76771e-02,0.26,0.26
-1.76768e-02,0.26,0.244
-1.76765e-02,0.256,0.264
-1.76762e-02,0.252,0.244
-1.76758e-02,0.264,0.264
-1.76755e-02,0.252,0.244
-1.76752e-02,0.256,0.264
-1.76749e-02,0.252,0.244
-1.76746e-02,0.252,0.264
-1.76742e-02,0.244,0.244
-1.76739e-02,0.256,0.264
-1.76736e-02,0.256,0.24
-1.76733e-02,0.248,0.268
-1.76730e-02,0.252,0.244
-1.76726e-02,0.256,0.264
-1.76723e-02,0.244,0.24
-1.76720e-02,0.248,0.264
-1.76717e-02,0.252,0.232
-1.76714e-02,0.256,0.272
-1.76710e-02,0.26,0.244
-1.76707e-02,0.26,0.268
-1.76704e-02,0.256,0.244
-1.76701e-02,0.256,0.264
-1.76698e-02,0.256,0.248
-1.76694e-02,0.252,0.264
-1.76691e-02,0.256,0.244
-1.76688e-02,0.26,0.264
-1.76685e-02,0.256,0.244
-1.76682e-02,0.264,0.264
-1.76678e-02,0.252,0.244
-1.76675e-02,0.256,0.264
-1.76672e-02,0.26,0.244
-1.76669e-02,0.252,0.268
-1.76666e-02,0.256,0.244
-1.76662e-02,0.252,0.264
-1.76659e-02,0.252,0.244
-1.76656e-02,0.252,0.264
-1.76653e-02,0.256,0.244
-1.76650e-02,0.256,0.264
-1.76646e-02,0.26,0.244
-1.76643e-02,0.252,0.264
-1.76640e-02,0.26,0.24
-1.76637e-02,0.244,0.264
-1.76634e-02,0.26,0.232
-1.76630e-02,0.252,0.28
-1.76627e-02,0.256,0.24
-1.76624e-02,0.252,0.268
-1.76621e-02,0.252,0.244
-1.76618e-02,0.26,0.268
-1.76614e-02,0.268,0.24
-1.76611e-02,0.256,0.272
-1.76608e-02,0.256,0.248
-1.76605e-02,0.264,0.272
-1.76602e-02,0.26,0.248
-1.76598e-02,0.26,0.268
-1.76595e-02,0.26,0.252
-1.76592e-02,0.26,0.272
-1.76589e-02,0.26,0.248
-1.76586e-02,0.264,0.268
-1.76582e-02,0.252,0.248
-1.76579e-02,0.26,0.272
-1.76576e-02,0.26,0.248
-1.76573e-02,0.26,0.268
-1.76570e-02,0.26,0.248
-1.76566e-02,0.26,0.268
-1.76563e-02,0.248,0.248
-1.76560e-02,0.256,0.268
-1.76557e-02,0.256,0.236
-1.76554e-02,0.256,0.28
-1.76550e-02,0.264,0.248
-1.76547e-02,0.264,0.272
-1.76544e-02,0.256,0.24
-1.76541e-02,0.256,0.268
-1.76538e-02,0.256,0.248
-1.76534e-02,0.26,0.272
-1.76531e-02,0.264,0.248
-1.76528e-02,0.252,0.272
-1.76525e-02,0.26,0.248
-1.76522e-02,0.256,0.268
-1.76518e-02,0.256,0.248
-1.76515e-02,0.256,0.272
-1.76512e-02,0.256,0.248
-1.76509e-02,0.26,0.268
-1.76506e-02,0.264,0.248
-1.76502e-02,0.256,0.272
-1.76499e-02,0.264,0.248
-1.76496e-02,0.252,0.268
-1.76493e-02,0.26,0.244
-1.76490e-02,0.256,0.268
-1.76486e-02,0.26,0.244
-1.76483e-02,0.252,0.268
-1.76480e-02,0.26,0.24
-1.76477e-02,0.26,0.28
-1.76474e-02,0.264,0.24
-1.76470e-02,0.252,0.276
-1.76467e-02,0.26,0.248
-1.76464e-02,0.26,0.272
-1.76461e-02,0.26,0.248
-1.76458e-02,0.26,0.268
-1.76454e-02,0.252,0.248
-1.76451e-02,0.256,0.268
-1.76448e-02,0.26,0.248
-1.76445e-02,0.268,0.268
-1.76442e-02,0.252,0.248
-1.76438e-02,0.256,0.272
-1.76435e-02,0.256,0.248
-1.76432e-02,0.248,0.268
-1.76429e-02,0.256,0.244
-1.76426e-02,0.26,0.272
-1.76422e-02,0.252,0.248
-1.76419e-02,0.268,0.272
-1.76416e-02,0.26,0.248
-1.76413e-02,0.252,0.272
-1.76410e-02,0.268,0.248
-1.76406e-02,0.26,0.272
-1.76403e-02,0.264,0.252
-1.76400e-02,0.252,0.268
-1.76397e-02,0.264,0.236
-1.76394e-02,0.264,0.288
-1.76390e-02,0.26,0.252
-1.76387e-02,0.26,0.272
-1.76384e-02,0.26,0.252
-1.76381e-02,0.256,0.276
-1.76378e-02,0.264,0.252
-1.76374e-02,0.264,0.276
-1.76371e-02,0.26,0.252
-1.76368e-02,0.26,0.272
-1.76365e-02,0.264,0.248
-1.76362e-02,0.264,0.272
-1.76358e-02,0.26,0.248
-1.76355e-02,0.26,0.272
-1.76352e-02,0.264,0.248
-1.76349e-02,0.264,0.272
-1.76346e-02,0.26,0.248
-1.76342e-02,0.264,0.272
-1.76339e-02,0.264,0.252
-1.76336e-02,0.264,0.272
-1.76333e-02,0.252,0.252
-1.76330e-02,0.256,0.276
-1.76326e-02,0.256,0.252
-1.76323e-02,0.26,0.272
-1.76320e-02,0.26,0.244
-1.76317e-02,0.268,0.28
-1.76314e-02,0.264,0.248
-1.76310e-02,0.256,0.276
-1.76307e-02,0.264,0.252
-1.76304e-02,0.264,0.272
-1.76301e-02,0.264,0.252
-1.76298e-02,0.26,0.272
-1.76294e-02,0.26,0.252
-1.76291e-02,0.268,0.276
-1.76288e-02,0.264,0.252
-1.76285e-02,0.26,0.272
-1.76282e-02,0.26,0.248
-1.76278e-02,0.256,0.272
-1.76275e-02,0.26,0.248
-1.76272e-02,0.264,0.272
-1.76269e-02,0.264,0.248
-1.76266e-02,0.268,0.268
-1.76262e-02,0.26,0.252
-1.76259e-02,0.26,0.272
-1.76256e-02,0.264,0.252
-1.76253e-02,0.264,0.272
-1.76250e-02,0.26,0.252
-1.76246e-02,0.256,0.276
-1.76243e-02,0.264,0.248
-1.76240e-02,0.26,0.276
-1.76237e-02,0.26,0.24
-1.76234e-02,0.264,0.284
-1.76230e-02,0.264,0.252
-1.76227e-02,0.264,0.272
-1.76224e-02,0.264,0.256
-1.76221e-02,0.264,0.276
-1.76218e-02,0.268,0.248
-1.76214e-02,0.264,0.276
-1.76211e-02,0.252,0.252
-1.76208e-02,0.26,0.276
-1.76205e-02,0.256,0.248
-1.76202e-02,0.264,0.272
-1.76198e-02,0.264,0.252
-1.76195e-02,0.256,0.276
-1.76192e-02,0.264,0.248
-1.76189e-02,0.256,0.272
-1.76186e-02,0.264,0.252
-1.76182e-02,0.26,0.272
-1.76179e-02,0.264,0.252
-1.76176e-02,0.268,0.276
-1.76173e-02,0.264,0.252
-1.76170e-02,0.26,0.272
-1.76166e-02,0.272,0.252
-1.76163e-02,0.268,0.276
-1.76160e-02,0.26,0.24
-1.76157e-02,0.26,0.28
-1.76154e-02,0.256,0.252
-1.76150e-02,0.26,0.276
-1.76147e-02,0.264,0.252
-1.76144e-02,0.26,0.272
-1.76141e-02,0.26,0.252
-1.76138e-02,0.268,0.28
-1.76134e-02,0.256,0.252
-1.76131e-02,0.264,0.276
-1.76128e-02,0.256,0.252
-1.76125e-02,0.264,0.272
-1.76122e-02,0.268,0.252
-1.76118e-02,0.264,0.272
-1.76115e-02,0.268,0.248
-1.76112e-02,0.264,0.276
-1.76109e-02,0.264,0.256
-1.76106e-02,0.272,0.276
-1.76102e-02,0.264,0.252
-1.76099e-02,0.264,0.272
-1.76096e-02,0.264,0.256
-1.76093e-02,0.272,0.276
-1.76090e-02,0.272,0.256
-1.76086e-02,0.268,0.276
-1.76083e-02,0.268,0.248
-1.76080e-02,0.264,0.292
-1.76077e-02,0.26,0.252
-1.76074e-02,0.264,0.28
-1.76070e-02,0.264,0.256
-1.76067e-02,0.26,0.276
-1.76064e-02,0.264,0.256
-1.76061e-02,0.264,0.276
-1.76058e-02,0.268,0.256
-1.76054e-02,0.264,0.276
-1.76051e-02,0.26,0.256
-1.76048e-02,0.26,0.28
-1.76045e-02,0.268,0.256
-1.76042e-02,0.268,0.276
-1.76038e-02,0.264,0.252
-1.76035e-02,0.264,0.276
-1.76032e-02,0.268,0.248
-1.76029e-02,0.264,0.276
-1.76026e-02,0.264,0.256
-1.76022e-02,0.264,0.28
-1.76019e-02,0.268,0.256
-1.76016e-02,0.272,0.276
-1.76013e-02,0.268,0.256
-1.76010e-02,0.276,0.28
-1.76006e-02,0.264,0.26
-1.76003e-02,0.272,0.28
-1.76000e-02,0.268,0.248
-1.75997e-02,0.268,0.292
-1.75994e-02,0.268,0.256
-1.75990e-02,0.268,0.276
-1.75987e-02,0.26,0.256
-1.75984e-02,0.268,0.276
-1.75981e-02,0.268,0.252
-1.75978e-02,0.268,0.28
-1.75974e-02,0.268,0.26
-1.75971e-02,0.272,0.276
-1.75968e-02,0.268,0.26
-1.75965e-02,0.264,0.28
-1.75962e-02,0.272,0.256
-1.75958e-02,0.264,0.276
-1.75955e-02,0.268,0.256
-1.75952e-02,0.264,0.28
-1.75949e-02,0.268,0.256
-1.75946e-02,0.268,0.28
-1.75942e-02,0.272,0.26
-1.75939e-02,0.268,0.284
-1.75936e-02,0.268,0.256
-1.75933e-02,0.268,0.28
-1.75930e-02,0.28,0.26
-1.75926e-02,0.268,0.28
-1.75923e-02,0.268,0.252
-1.75920e-02,0.268,0.296
-1.75917e-02,0.264,0.256
-1.75914e-02,0.272,0.28
-1.75910e-02,0.268,0.26
-1.75907e-02,0.268,0.28
-1.75904e-02,0.268,0.256
-1.75901e-02,0.264,0.28
-1.75898e-02,0.264,0.256
-1.75894e-02,0.264,0.276
-1.75891e-02,0.26,0.256
-1.75888e-02,0.264,0.272
-1.75885e-02,0.264,0.252
-1.75882e-02,0.264,0.276
-1.75878e-02,0.264,0.256
-1.75875e-02,0.264,0.276
-1.75872e-02,0.276,0.256
-1.75869e-02,0.268,0.276
-1.75866e-02,0.272,0.26
-1.75862e-02,0.268,0.28
-1.75859e-02,0.272,0.26
-1.75856e-02,0.268,0.284
-1.75853e-02,0.268,0.256
-1.75850e-02,0.288,0.28
-1.75846e-02,0.268,0.252
-1.75843e-02,0.268,0.288
-1.75840e-02,0.264,0.252
-1.75837e-02,0.272,0.288
-1.75834e-02,0.268,0.256
-1.75830e-02,0.272,0.28
-1.75827e-02,0.276,0.26
-1.75824e-02,0.268,0.28
-1.75821e-02,0.264,0.26
-1.75818e-02,0.272,0.28
-1.75814e-02,0.272,0.26
-1.75811e-02,0.268,0.28
-1.75808e-02,0.276,0.264
-1.75805e-02,0.272,0.284
-1.75802e-02,0.272,0.26
-1.75798e-02,0.272,0.28
-1.75795e-02,0.272,0.26
-1.75792e-02,0.264,0.28
-1.75789e-02,0.268,0.26
-1.75786e-02,0.272,0.28
-1.75782e-02,0.268,0.26
-1.75779e-02,0.268,0.284
-1.75776e-02,0.268,0.26
-1.75773e-02,0.272,0.28
-1.75770e-02,0.28,0.26
-1.75766e-02,0.272,0.28
-1.75763e-02,0.272,0.252
-1.75760e-02,0.276,0.292
-1.75757e-02,0.268,0.252
-1.75754e-02,0.268,0.284
-1.75750e-02,0.268,0.26
-1.75747e-02,0.272,0.28
-1.75744e-02,0.272,0.26
-1.75741e-02,0.276,0.28
-1.75738e-02,0.268,0.26
-1.75734e-02,0.272,0.284
-1.75731e-02,0.268,0.264
-1.75728e-02,0.264,0.284
-1.75725e-02,0.272,0.26
-1.75722e-02,0.26,0.28
-1.75718e-02,0.272,0.26
-1.75715e-02,0.272,0.284
-1.75712e-02,0.268,0.26
-1.75709e-02,0.268,0.28
-1.75706e-02,0.272,0.256
-1.75702e-02,0.268,0.28
-1.75699e-02,0.272,0.26
-1.75696e-02,0.276,0.28
-1.75693e-02,0.276,0.264
-1.75690e-02,0.272,0.284
-1.75686e-02,0.272,0.248
-1.75683e-02,0.268,0.296
-1.75680e-02,0.268,0.252
-1.75677e-02,0.268,0.28
-1.75674e-02,0.272,0.26
-1.75670e-02,0.272,0.28
-1.75667e-02,0.272,0.26
-1.75664e-02,0.264,0.284
-1.75661e-02,0.268,0.26
-1.75658e-02,0.268,0.28
-1.75654e-02,0.268,0.26
-1.75651e-02,0.268,0.28
-1.75648e-02,0.268,0.26
-1.75645e-02,0.272,0.28
-1.75642e-02,0.272,0.26
-1.75638e-02,0.268,0.28
-1.75635e-02,0.268,0.26
-1.75632e-02,0.268,0.28
-1.75629e-02,0.272,0.26
-1.75626e-02,0.268,0.28
-1.75622e-02,0.268,0.26
-1.75619e-02,0.264,0.28
-1.75616e-02,0.268,0.256
-1.75613e-02,0.28,0.28
-1.75610e-02,0.264,0.256
-1.75606e-02,0.276,0.284
-1.75603e-02,0.272,0.252
-1.75600e-02,0.268,0.292
